EESchema Schematic File Version 4
EELAYER 30 0
EELAYER END
$Descr A4 11693 8268
encoding utf-8
Sheet 1 1
Title ""
Date ""
Rev ""
Comp ""
Comment1 ""
Comment2 ""
Comment3 ""
Comment4 ""
$EndDescr
$Comp
L driver-chip:TS19371 U3
U 1 1 5F069772
P 14000 400
F 0 "U3" H 14050 350 50  0000 R CNN
F 1 "TS19371" H 14150 500 50  0000 R CNN
F 2 "sot-26:SOT-26" H 14000 400 50  0001 C CNN
F 3 "" H 14000 400 50  0001 C CNN
	1    14000 400 
	1    0    0    -1  
$EndComp
$Comp
L Device:L L1
U 1 1 5F069ADB
P 14000 -250
F 0 "L1" V 14190 -250 50  0000 C CNN
F 1 "10uH" V 14099 -250 50  0000 C CNN
F 2 "cd54np:cp54np-470lc" H 14000 -250 50  0001 C CNN
F 3 "~" H 14000 -250 50  0001 C CNN
	1    14000 -250
	0    -1   -1   0   
$EndComp
$Comp
L Device:C C4
U 1 1 5F069E54
P 15600 -50
F 0 "C4" H 15715 -4  50  0000 L CNN
F 1 "4.7uF" H 15715 -95 50  0000 L CNN
F 2 "Capacitor_SMD:C_1206_3216Metric" H 15638 -200 50  0001 C CNN
F 3 "~" H 15600 -50 50  0001 C CNN
	1    15600 -50 
	1    0    0    -1  
$EndComp
$Comp
L Device:D_Schottky D1
U 1 1 5F06A12E
P 14500 -250
F 0 "D1" H 14500 -467 50  0000 C CNN
F 1 "D_Schottky" H 14500 -376 50  0000 C CNN
F 2 "mss1p6:mss1p6-m3" H 14500 -250 50  0001 C CNN
F 3 "~" H 14500 -250 50  0001 C CNN
	1    14500 -250
	-1   0    0    1   
$EndComp
$Comp
L Device:LED D3
U 1 1 5F06A96D
P 15000 200
F 0 "D3" V 15039 82  50  0000 R CNN
F 1 "LED" V 14948 82  50  0000 R CNN
F 2 "Connector_PinHeader_2.54mm:PinHeader_1x02_P2.54mm_Vertical" H 15000 200 50  0001 C CNN
F 3 "~" H 15000 200 50  0001 C CNN
	1    15000 200 
	0    -1   -1   0   
$EndComp
Wire Wire Line
	14150 -250 14350 -250
Wire Wire Line
	14150 -250 14150 -50 
Connection ~ 14150 -250
Wire Wire Line
	13850 -50  13850 -250
$Comp
L Connector:Screw_Terminal_01x02 J2
U 1 1 5F06C6EC
P 1700 3850
F 0 "J2" H 1618 4067 50  0000 C CNN
F 1 "BATT" H 1618 3976 50  0000 C CNN
F 2 "Connector_PinHeader_2.54mm:PinHeader_1x02_P2.54mm_Vertical" H 1700 3850 50  0001 C CNN
F 3 "~" H 1700 3850 50  0001 C CNN
	1    1700 3850
	-1   0    0    -1  
$EndComp
Wire Wire Line
	12950 -250 13250 -250
Connection ~ 13850 -250
$Comp
L Device:C C3
U 1 1 5F06FDE7
P 13250 -100
F 0 "C3" H 13365 -54 50  0000 L CNN
F 1 "4.7uF" H 13365 -145 50  0000 L CNN
F 2 "Capacitor_SMD:C_1206_3216Metric" H 13288 -250 50  0001 C CNN
F 3 "~" H 13250 -100 50  0001 C CNN
	1    13250 -100
	1    0    0    -1  
$EndComp
Connection ~ 13250 -250
Wire Wire Line
	13250 -250 13850 -250
$Comp
L power:GND #PWR018
U 1 1 5F070313
P 13250 50
F 0 "#PWR018" H 13250 -200 50  0001 C CNN
F 1 "GND" H 13255 -123 50  0000 C CNN
F 2 "" H 13250 50  50  0001 C CNN
F 3 "" H 13250 50  50  0001 C CNN
	1    13250 50  
	1    0    0    -1  
$EndComp
$Comp
L power:GND #PWR019
U 1 1 5F0736F0
P 14000 1100
F 0 "#PWR019" H 14000 850 50  0001 C CNN
F 1 "GND" H 14005 927 50  0000 C CNN
F 2 "" H 14000 1100 50  0001 C CNN
F 3 "" H 14000 1100 50  0001 C CNN
	1    14000 1100
	1    0    0    -1  
$EndComp
$Comp
L Device:R R3
U 1 1 5F0741E2
P 10250 1800
F 0 "R3" H 10320 1846 50  0000 L CNN
F 1 "330m" H 10320 1755 50  0000 L CNN
F 2 "Resistor_SMD:R_0805_2012Metric" V 10180 1800 50  0001 C CNN
F 3 "~" H 10250 1800 50  0001 C CNN
	1    10250 1800
	1    0    0    -1  
$EndComp
Wire Wire Line
	14650 -250 14750 -250
Wire Wire Line
	15000 -250 15000 50  
Wire Wire Line
	15000 -250 15600 -250
Wire Wire Line
	15600 -250 15600 -200
Connection ~ 15000 -250
Wire Wire Line
	15000 350  15000 600 
Wire Wire Line
	15000 600  14400 600 
Connection ~ 15000 600 
Wire Wire Line
	15000 600  15000 700 
Wire Wire Line
	14400 250  14750 250 
Wire Wire Line
	14750 250  14750 -250
Connection ~ 14750 -250
Wire Wire Line
	14750 -250 15000 -250
Wire Wire Line
	14000 850  14000 1100
Wire Wire Line
	15000 1000 15000 1100
Wire Wire Line
	15000 1100 14000 1100
Connection ~ 14000 1100
Wire Wire Line
	15000 1100 15600 1100
Wire Wire Line
	15600 1100 15600 100 
Connection ~ 15000 1100
$Comp
L power:VCC #PWR05
U 1 1 5F07EA5A
P 2000 3800
F 0 "#PWR05" H 2000 3650 50  0001 C CNN
F 1 "VCC" H 2015 3973 50  0000 C CNN
F 2 "" H 2000 3800 50  0001 C CNN
F 3 "" H 2000 3800 50  0001 C CNN
	1    2000 3800
	1    0    0    -1  
$EndComp
$Comp
L power:GND #PWR06
U 1 1 5F07EE9D
P 2000 4000
F 0 "#PWR06" H 2000 3750 50  0001 C CNN
F 1 "GND" H 2005 3827 50  0000 C CNN
F 2 "" H 2000 4000 50  0001 C CNN
F 3 "" H 2000 4000 50  0001 C CNN
	1    2000 4000
	1    0    0    -1  
$EndComp
Wire Wire Line
	1900 3850 2000 3850
Wire Wire Line
	2000 3850 2000 3800
Wire Wire Line
	1900 3950 2000 3950
Wire Wire Line
	2000 3950 2000 4000
$Comp
L power:VCC #PWR07
U 1 1 5F086151
P 3300 2100
F 0 "#PWR07" H 3300 1950 50  0001 C CNN
F 1 "VCC" H 3315 2273 50  0000 C CNN
F 2 "" H 3300 2100 50  0001 C CNN
F 3 "" H 3300 2100 50  0001 C CNN
	1    3300 2100
	1    0    0    -1  
$EndComp
Wire Wire Line
	3300 2100 3300 2150
Wire Wire Line
	3300 2150 3600 2150
Wire Wire Line
	3600 2150 3600 2200
Connection ~ 3600 2150
Wire Wire Line
	3600 2150 3900 2150
Wire Wire Line
	5050 2100 5050 2150
Wire Wire Line
	5050 2150 4800 2150
Wire Wire Line
	4800 2200 4800 2150
Connection ~ 4800 2150
Wire Wire Line
	4800 2150 4700 2150
$Comp
L power:GND #PWR010
U 1 1 5F0883C9
P 4200 2750
F 0 "#PWR010" H 4200 2500 50  0001 C CNN
F 1 "GND" H 4205 2577 50  0000 C CNN
F 2 "" H 4200 2750 50  0001 C CNN
F 3 "" H 4200 2750 50  0001 C CNN
	1    4200 2750
	1    0    0    -1  
$EndComp
Wire Wire Line
	4200 2550 4200 2700
Connection ~ 4200 2700
Wire Wire Line
	4200 2700 4200 2750
Wire Wire Line
	4200 2700 3600 2700
Wire Wire Line
	3600 2700 3600 2500
$Comp
L power:VCC #PWR017
U 1 1 5F094C0D
P 12950 -250
F 0 "#PWR017" H 12950 -400 50  0001 C CNN
F 1 "VCC" H 12965 -77 50  0000 C CNN
F 2 "" H 12950 -250 50  0001 C CNN
F 3 "" H 12950 -250 50  0001 C CNN
	1    12950 -250
	1    0    0    -1  
$EndComp
$Comp
L dk_PMIC-Voltage-Regulators-Linear:NCP1117ST50T3G U2
U 1 1 5F0C358C
P 4200 2150
F 0 "U2" H 4250 2437 60  0000 C CNN
F 1 "NCP1117ST50T3G" H 4250 2331 60  0000 C CNN
F 2 "digikey-footprints:SOT-223" H 4400 2350 60  0001 L CNN
F 3 "https://www.onsemi.com/pub/Collateral/NCP1117-D.PDF" H 4400 2450 60  0001 L CNN
F 4 "NCP1117ST50T3GOSCT-ND" H 4400 2550 60  0001 L CNN "Digi-Key_PN"
F 5 "NCP1117ST50T3G" H 4400 2650 60  0001 L CNN "MPN"
F 6 "Integrated Circuits (ICs)" H 4400 2750 60  0001 L CNN "Category"
F 7 "PMIC - Voltage Regulators - Linear" H 4400 2850 60  0001 L CNN "Family"
F 8 "https://www.onsemi.com/pub/Collateral/NCP1117-D.PDF" H 4400 2950 60  0001 L CNN "DK_Datasheet_Link"
F 9 "/product-detail/en/on-semiconductor/NCP1117ST50T3G/NCP1117ST50T3GOSCT-ND/1967217" H 4400 3050 60  0001 L CNN "DK_Detail_Page"
F 10 "IC REG LINEAR 5V 1A SOT223" H 4400 3150 60  0001 L CNN "Description"
F 11 "ON Semiconductor" H 4400 3250 60  0001 L CNN "Manufacturer"
F 12 "Active" H 4400 3350 60  0001 L CNN "Status"
	1    4200 2150
	1    0    0    -1  
$EndComp
Wire Wire Line
	4600 2250 4700 2250
Wire Wire Line
	4700 2250 4700 2150
Connection ~ 4700 2150
Wire Wire Line
	4700 2150 4600 2150
Wire Wire Line
	4800 2500 4800 2700
Wire Wire Line
	4200 2700 4800 2700
$Comp
L power:+5V #PWR012
U 1 1 5F0CC7D0
P 5050 2100
F 0 "#PWR012" H 5050 1950 50  0001 C CNN
F 1 "+5V" H 5065 2273 50  0000 C CNN
F 2 "" H 5050 2100 50  0001 C CNN
F 3 "" H 5050 2100 50  0001 C CNN
	1    5050 2100
	1    0    0    -1  
$EndComp
$Comp
L Device:CP C2
U 1 1 5F0CEC27
P 4800 2350
F 0 "C2" H 4918 2396 50  0000 L CNN
F 1 "10uF" H 4918 2305 50  0000 L CNN
F 2 "Capacitor_SMD:C_1206_3216Metric" H 4838 2200 50  0001 C CNN
F 3 "~" H 4800 2350 50  0001 C CNN
	1    4800 2350
	1    0    0    -1  
$EndComp
$Comp
L Device:CP C1
U 1 1 5F0D0D3A
P 3600 2350
F 0 "C1" H 3718 2396 50  0000 L CNN
F 1 "10uF" H 3718 2305 50  0000 L CNN
F 2 "Capacitor_SMD:C_1206_3216Metric" H 3638 2200 50  0001 C CNN
F 3 "~" H 3600 2350 50  0001 C CNN
	1    3600 2350
	1    0    0    -1  
$EndComp
$Comp
L Device:R R1
U 1 1 5F1E6D50
P 5500 6850
F 0 "R1" H 5570 6896 50  0000 L CNN
F 1 "10k" H 5570 6805 50  0000 L CNN
F 2 "Resistor_SMD:R_0805_2012Metric" V 5430 6850 50  0001 C CNN
F 3 "~" H 5500 6850 50  0001 C CNN
	1    5500 6850
	1    0    0    -1  
$EndComp
$Comp
L Switch:SW_Push SW1
U 1 1 5F1E7E23
P 5150 6600
F 0 "SW1" H 5150 6885 50  0000 C CNN
F 1 "SW_Push" H 5150 6794 50  0000 C CNN
F 2 "Connector_PinHeader_2.54mm:PinHeader_1x02_P2.54mm_Vertical" H 5150 6800 50  0001 C CNN
F 3 "~" H 5150 6800 50  0001 C CNN
	1    5150 6600
	1    0    0    -1  
$EndComp
$Comp
L power:+5V #PWR011
U 1 1 5F1F04CA
P 4800 6450
F 0 "#PWR011" H 4800 6300 50  0001 C CNN
F 1 "+5V" H 4815 6623 50  0000 C CNN
F 2 "" H 4800 6450 50  0001 C CNN
F 3 "" H 4800 6450 50  0001 C CNN
	1    4800 6450
	1    0    0    -1  
$EndComp
$Comp
L power:GND #PWR013
U 1 1 5F1F0E50
P 5500 7050
F 0 "#PWR013" H 5500 6800 50  0001 C CNN
F 1 "GND" H 5505 6877 50  0000 C CNN
F 2 "" H 5500 7050 50  0001 C CNN
F 3 "" H 5500 7050 50  0001 C CNN
	1    5500 7050
	1    0    0    -1  
$EndComp
$Comp
L Device:R_POT RV1
U 1 1 5F2433BC
P 6250 5950
F 0 "RV1" H 6180 5904 50  0000 R CNN
F 1 "R_POT" H 6180 5995 50  0000 R CNN
F 2 "Connector_PinHeader_2.54mm:PinHeader_1x03_P2.54mm_Vertical" H 6250 5950 50  0001 C CNN
F 3 "~" H 6250 5950 50  0001 C CNN
	1    6250 5950
	-1   0    0    1   
$EndComp
$Comp
L Device:R R4
U 1 1 5F243E04
P 13650 6600
F 0 "R4" H 13720 6646 50  0000 L CNN
F 1 "30k" H 13720 6555 50  0000 L CNN
F 2 "Resistor_SMD:R_0805_2012Metric" V 13580 6600 50  0001 C CNN
F 3 "~" H 13650 6600 50  0001 C CNN
	1    13650 6600
	1    0    0    -1  
$EndComp
$Comp
L Device:R R5
U 1 1 5F24409F
P 13650 7100
F 0 "R5" H 13720 7146 50  0000 L CNN
F 1 "7.5k" H 13720 7055 50  0000 L CNN
F 2 "Resistor_SMD:R_0805_2012Metric" V 13580 7100 50  0001 C CNN
F 3 "~" H 13650 7100 50  0001 C CNN
	1    13650 7100
	1    0    0    -1  
$EndComp
$Comp
L Device:R R2
U 1 1 5F248761
P 12850 6750
F 0 "R2" H 12920 6796 50  0000 L CNN
F 1 "30k" H 12920 6705 50  0000 L CNN
F 2 "Resistor_SMD:R_0805_2012Metric" V 12780 6750 50  0001 C CNN
F 3 "~" H 12850 6750 50  0001 C CNN
	1    12850 6750
	1    0    0    -1  
$EndComp
$Comp
L Device:LED D2
U 1 1 5F24E4F5
P 12850 6400
F 0 "D2" V 12889 6282 50  0000 R CNN
F 1 "LED" V 12798 6282 50  0000 R CNN
F 2 "LED_SMD:LED_0805_2012Metric" H 12850 6400 50  0001 C CNN
F 3 "~" H 12850 6400 50  0001 C CNN
	1    12850 6400
	0    -1   -1   0   
$EndComp
Wire Wire Line
	12850 6600 12850 6550
Wire Wire Line
	12900 5450 12900 5400
Wire Wire Line
	12300 6250 12850 6250
$Comp
L power:GND #PWR015
U 1 1 5F25BDCB
P 6250 6100
F 0 "#PWR015" H 6250 5850 50  0001 C CNN
F 1 "GND" H 6255 5927 50  0000 C CNN
F 2 "" H 6250 6100 50  0001 C CNN
F 3 "" H 6250 6100 50  0001 C CNN
	1    6250 6100
	1    0    0    -1  
$EndComp
$Comp
L power:+5V #PWR014
U 1 1 5F25C151
P 6250 5800
F 0 "#PWR014" H 6250 5650 50  0001 C CNN
F 1 "+5V" H 6265 5973 50  0000 C CNN
F 2 "" H 6250 5800 50  0001 C CNN
F 3 "" H 6250 5800 50  0001 C CNN
	1    6250 5800
	1    0    0    -1  
$EndComp
Wire Wire Line
	5900 5950 6100 5950
$Comp
L power:GND #PWR022
U 1 1 5F26AAC9
P 13650 7250
F 0 "#PWR022" H 13650 7000 50  0001 C CNN
F 1 "GND" H 13655 7077 50  0000 C CNN
F 2 "" H 13650 7250 50  0001 C CNN
F 3 "" H 13650 7250 50  0001 C CNN
	1    13650 7250
	1    0    0    -1  
$EndComp
Wire Wire Line
	13650 6850 13450 6850
Connection ~ 13650 6850
Wire Wire Line
	13650 6850 13650 6950
Wire Wire Line
	13650 6750 13650 6850
$Comp
L power:VCC #PWR021
U 1 1 5F279AF4
P 13650 6450
F 0 "#PWR021" H 13650 6300 50  0001 C CNN
F 1 "VCC" H 13665 6623 50  0000 C CNN
F 2 "" H 13650 6450 50  0001 C CNN
F 3 "" H 13650 6450 50  0001 C CNN
	1    13650 6450
	1    0    0    -1  
$EndComp
Text Label 12300 6250 0    50   ~ 0
PA1
Text Label 13450 6850 0    50   ~ 0
PA2
$Comp
L Switch:SW_SPST SW2
U 1 1 5F2A6321
P 3850 6600
F 0 "SW2" H 3850 6835 50  0000 C CNN
F 1 "SW_SPST" H 3850 6744 50  0000 C CNN
F 2 "Connector_PinHeader_2.54mm:PinHeader_1x02_P2.54mm_Vertical" H 3850 6600 50  0001 C CNN
F 3 "~" H 3850 6600 50  0001 C CNN
	1    3850 6600
	1    0    0    -1  
$EndComp
Text Label 13400 400  0    50   ~ 0
PA7
Wire Wire Line
	13400 400  13600 400 
$Comp
L power:GND #PWR0101
U 1 1 5F2C4B64
P 12850 6900
F 0 "#PWR0101" H 12850 6650 50  0001 C CNN
F 1 "GND" H 12855 6727 50  0000 C CNN
F 2 "" H 12850 6900 50  0001 C CNN
F 3 "" H 12850 6900 50  0001 C CNN
	1    12850 6900
	1    0    0    -1  
$EndComp
$Comp
L dk_PMIC-LED-Drivers:TPS61165DBVR U?
U 1 1 5F374798
P 9800 1500
F 0 "U?" H 10144 1553 60  0000 L CNN
F 1 "TPS61165DBVR" H 10144 1447 60  0000 L CNN
F 2 "digikey-footprints:SOT-23-6" H 10000 1700 60  0001 L CNN
F 3 "http://www.ti.com/general/docs/suppproductinfo.tsp?distId=10&gotoUrl=http%3A%2F%2Fwww.ti.com%2Flit%2Fgpn%2Ftps61165" H 10000 1800 60  0001 L CNN
F 4 "296-27597-1-ND" H 10000 1900 60  0001 L CNN "Digi-Key_PN"
F 5 "TPS61165DBVR" H 10000 2000 60  0001 L CNN "MPN"
F 6 "Integrated Circuits (ICs)" H 10000 2100 60  0001 L CNN "Category"
F 7 "PMIC - LED Drivers" H 10000 2200 60  0001 L CNN "Family"
F 8 "http://www.ti.com/general/docs/suppproductinfo.tsp?distId=10&gotoUrl=http%3A%2F%2Fwww.ti.com%2Flit%2Fgpn%2Ftps61165" H 10000 2300 60  0001 L CNN "DK_Datasheet_Link"
F 9 "/product-detail/en/texas-instruments/TPS61165DBVR/296-27597-1-ND/2340765" H 10000 2400 60  0001 L CNN "DK_Detail_Page"
F 10 "IC LED DRIVER RGLTR DIM SOT23-6" H 10000 2500 60  0001 L CNN "Description"
F 11 "Texas Instruments" H 10000 2600 60  0001 L CNN "Manufacturer"
F 12 "Active" H 10000 2700 60  0001 L CNN "Status"
	1    9800 1500
	1    0    0    -1  
$EndComp
$Comp
L Device:C C?
U 1 1 5F375606
P 9250 1850
F 0 "C?" H 9365 1896 50  0000 L CNN
F 1 "22nF" H 9365 1805 50  0000 L CNN
F 2 "Capacitor_SMD:C_1206_3216Metric" H 9288 1700 50  0001 C CNN
F 3 "~" H 9250 1850 50  0001 C CNN
	1    9250 1850
	1    0    0    -1  
$EndComp
Wire Wire Line
	9250 1600 9250 1700
Wire Wire Line
	9250 1600 9400 1600
$Comp
L power:GND #PWR?
U 1 1 5F37AAF8
P 9250 2000
F 0 "#PWR?" H 9250 1750 50  0001 C CNN
F 1 "GND" H 9255 1827 50  0000 C CNN
F 2 "" H 9250 2000 50  0001 C CNN
F 3 "" H 9250 2000 50  0001 C CNN
	1    9250 2000
	1    0    0    -1  
$EndComp
$Comp
L power:GND #PWR?
U 1 1 5F37B038
P 9800 2000
F 0 "#PWR?" H 9800 1750 50  0001 C CNN
F 1 "GND" H 9805 1827 50  0000 C CNN
F 2 "" H 9800 2000 50  0001 C CNN
F 3 "" H 9800 2000 50  0001 C CNN
	1    9800 2000
	1    0    0    -1  
$EndComp
Wire Wire Line
	9800 2000 9800 1800
$Comp
L Device:C_Small C10
U 1 1 5E3A6B46
P 6350 3550
F 0 "C10" V 6121 3550 50  0000 C CNN
F 1 "22pF" V 6212 3550 50  0000 C CNN
F 2 "Capacitor_SMD:C_0805_2012Metric" H 6350 3550 50  0001 C CNN
F 3 "~" H 6350 3550 50  0001 C CNN
	1    6350 3550
	0    1    1    0   
$EndComp
$Comp
L Device:C_Small C11
U 1 1 5E3A75A7
P 6350 3750
F 0 "C11" V 6550 3750 50  0000 C CNN
F 1 "22pF" V 6450 3750 50  0000 C CNN
F 2 "Capacitor_SMD:C_0805_2012Metric" H 6350 3750 50  0001 C CNN
F 3 "~" H 6350 3750 50  0001 C CNN
	1    6350 3750
	0    1    1    0   
$EndComp
$Comp
L Device:Crystal_Small Y1
U 1 1 5E3A8027
P 6550 3650
F 0 "Y1" V 6504 3738 50  0000 L CNN
F 1 "Crystal_Small" V 6595 3738 50  0000 L CNN
F 2 "ECS-160-20-3X-TR:XTAL_ECS-160-20-3X-TR" H 6550 3650 50  0001 C CNN
F 3 "~" H 6550 3650 50  0001 C CNN
	1    6550 3650
	0    1    1    0   
$EndComp
Wire Wire Line
	7200 3700 6750 3700
$Comp
L power:GND #PWR017
U 1 1 5E3B0B19
P 6150 3800
F 0 "#PWR017" H 6150 3550 50  0001 C CNN
F 1 "GND" H 6155 3627 50  0000 C CNN
F 2 "" H 6150 3800 50  0001 C CNN
F 3 "" H 6150 3800 50  0001 C CNN
	1    6150 3800
	1    0    0    -1  
$EndComp
Wire Wire Line
	7700 5700 7700 5650
$Comp
L Device:R_Small R6
U 1 1 5E3B3E72
P 6800 2550
F 0 "R6" H 6859 2596 50  0000 L CNN
F 1 "10k" H 6859 2505 50  0000 L CNN
F 2 "Resistor_SMD:R_0805_2012Metric" H 6800 2550 50  0001 C CNN
F 3 "~" H 6800 2550 50  0001 C CNN
	1    6800 2550
	1    0    0    -1  
$EndComp
Wire Wire Line
	6800 2650 6800 2850
Wire Wire Line
	6800 3000 7200 3000
$Comp
L power:+5V #PWR020
U 1 1 5E3B762D
P 6800 2350
F 0 "#PWR020" H 6800 2200 50  0001 C CNN
F 1 "+5V" H 6815 2523 50  0000 C CNN
F 2 "" H 6800 2350 50  0001 C CNN
F 3 "" H 6800 2350 50  0001 C CNN
	1    6800 2350
	1    0    0    -1  
$EndComp
$Comp
L power:+5V #PWR021
U 1 1 5E3B7A22
P 7250 2100
F 0 "#PWR021" H 7250 1950 50  0001 C CNN
F 1 "+5V" H 7265 2273 50  0000 C CNN
F 2 "" H 7250 2100 50  0001 C CNN
F 3 "" H 7250 2100 50  0001 C CNN
	1    7250 2100
	1    0    0    -1  
$EndComp
Wire Wire Line
	7250 2100 7250 2500
Wire Wire Line
	7700 2500 7700 2700
Wire Wire Line
	7800 2700 7800 2500
Wire Wire Line
	7800 2500 7700 2500
Connection ~ 7700 2500
$Comp
L Connector_Generic:Conn_02x03_Odd_Even J5
U 1 1 5E3BADCD
P 9750 5900
F 0 "J5" H 9800 6217 50  0000 C CNN
F 1 "ICSP" H 9800 6126 50  0000 C CNN
F 2 "Connector_PinHeader_2.54mm:PinHeader_2x03_P2.54mm_Vertical" H 9750 5900 50  0001 C CNN
F 3 "~" H 9750 5900 50  0001 C CNN
	1    9750 5900
	1    0    0    -1  
$EndComp
Wire Wire Line
	7200 3600 6750 3600
$Comp
L dk_Embedded-Microcontrollers:ATMEGA328P-PU U4
U 1 1 5E3A0492
P 7700 4100
F 0 "U4" H 7978 4103 60  0000 L CNN
F 1 "ATMEGA328P-PU" H 7978 3997 60  0000 L CNN
F 2 "digikey-footprints:DIP-28_W7.62mm" H 7900 4300 60  0001 L CNN
F 3 "http://www.microchip.com/mymicrochip/filehandler.aspx?ddocname=en608326" H 7900 4400 60  0001 L CNN
F 4 "ATMEGA328P-PU-ND" H 7900 4500 60  0001 L CNN "Digi-Key_PN"
F 5 "ATMEGA328P-PU" H 7900 4600 60  0001 L CNN "MPN"
F 6 "Integrated Circuits (ICs)" H 7900 4700 60  0001 L CNN "Category"
F 7 "Embedded - Microcontrollers" H 7900 4800 60  0001 L CNN "Family"
F 8 "http://www.microchip.com/mymicrochip/filehandler.aspx?ddocname=en608326" H 7900 4900 60  0001 L CNN "DK_Datasheet_Link"
F 9 "/product-detail/en/microchip-technology/ATMEGA328P-PU/ATMEGA328P-PU-ND/1914589" H 7900 5000 60  0001 L CNN "DK_Detail_Page"
F 10 "IC MCU 8BIT 32KB FLASH 28DIP" H 7900 5100 60  0001 L CNN "Description"
F 11 "Microchip Technology" H 7900 5200 60  0001 L CNN "Manufacturer"
F 12 "Active" H 7900 5300 60  0001 L CNN "Status"
	1    7700 4100
	1    0    0    -1  
$EndComp
Wire Wire Line
	7200 3100 7000 3100
Wire Wire Line
	7200 3200 7000 3200
Wire Wire Line
	7200 3300 7000 3300
Wire Wire Line
	7200 3400 7000 3400
Wire Wire Line
	7200 3500 7000 3500
Wire Wire Line
	7200 3800 7000 3800
Wire Wire Line
	7200 3900 7000 3900
Wire Wire Line
	7200 4000 7000 4000
Wire Wire Line
	7200 4100 7000 4100
Wire Wire Line
	7200 4200 7000 4200
Wire Wire Line
	7200 4300 7000 4300
Wire Wire Line
	7200 4400 7000 4400
Wire Wire Line
	7200 4500 7000 4500
Wire Wire Line
	7200 4800 7000 4800
Wire Wire Line
	7200 4900 7000 4900
Wire Wire Line
	7200 5000 7000 5000
Wire Wire Line
	7200 5100 7000 5100
Wire Wire Line
	7200 5200 7000 5200
Wire Wire Line
	7200 5300 7000 5300
Text Label 7000 3100 0    50   ~ 0
RXI
Text Label 7000 3200 0    50   ~ 0
TXO
Text Label 7000 3300 0    50   ~ 0
D2
Text Label 7000 3400 0    50   ~ 0
D3
Text Label 7000 3500 0    50   ~ 0
D4
Text Label 7000 3800 0    50   ~ 0
D5
Text Label 7000 3900 0    50   ~ 0
D6
Text Label 7000 4000 0    50   ~ 0
D7
Text Label 7000 4100 0    50   ~ 0
D8
Text Label 7000 4200 0    50   ~ 0
D9
Text Label 7000 4300 0    50   ~ 0
D10
Text Label 7000 4400 0    50   ~ 0
MOSI
Text Label 7000 4500 0    50   ~ 0
MISO
Text Label 7000 4800 0    50   ~ 0
A0
Text Label 7000 4900 0    50   ~ 0
A1
Text Label 7000 5000 0    50   ~ 0
A2
Text Label 7000 5100 0    50   ~ 0
A3
Text Label 7000 5200 0    50   ~ 0
A4
Text Label 7000 5300 0    50   ~ 0
A5
Text Label 7000 4700 0    50   ~ 0
AREF
Wire Wire Line
	7200 4700 7000 4700
Text Label 7000 4600 0    50   ~ 0
SCK
Text Label 7500 2750 1    50   ~ 0
AREF
Wire Wire Line
	7250 2500 7500 2500
Connection ~ 7500 2500
Wire Wire Line
	7500 2500 7700 2500
Wire Wire Line
	7500 2500 7500 2750
Text Label 6900 3000 0    50   ~ 0
RESET
$Comp
L power:GND #PWR031
U 1 1 5E3EFB62
P 10150 6050
F 0 "#PWR031" H 10150 5800 50  0001 C CNN
F 1 "GND" H 10155 5877 50  0000 C CNN
F 2 "" H 10150 6050 50  0001 C CNN
F 3 "" H 10150 6050 50  0001 C CNN
	1    10150 6050
	1    0    0    -1  
$EndComp
$Comp
L power:+5V #PWR030
U 1 1 5E3F00EF
P 10150 5750
F 0 "#PWR030" H 10150 5600 50  0001 C CNN
F 1 "+5V" H 10165 5923 50  0000 C CNN
F 2 "" H 10150 5750 50  0001 C CNN
F 3 "" H 10150 5750 50  0001 C CNN
	1    10150 5750
	1    0    0    -1  
$EndComp
Wire Wire Line
	10050 6000 10150 6000
Wire Wire Line
	10150 6000 10150 6050
Wire Wire Line
	10050 5800 10150 5800
Wire Wire Line
	10150 5800 10150 5750
Text Label 10350 5900 2    50   ~ 0
MOSI
Wire Wire Line
	10050 5900 10350 5900
Wire Wire Line
	9250 5800 9550 5800
Text Label 9250 5800 0    50   ~ 0
MISO
Wire Wire Line
	9550 5900 9250 5900
Text Label 9250 5900 0    50   ~ 0
SCK
Wire Wire Line
	9550 6000 9250 6000
Text Label 9250 6000 0    50   ~ 0
RESET
$Comp
L Connector_Generic:Conn_01x08 J2
U 1 1 5E404DD4
P 12750 1900
F 0 "J2" H 12700 1400 50  0000 L CNN
F 1 "Conn_01x08" V 12850 1600 50  0000 L CNN
F 2 "Connector_PinSocket_2.54mm:PinSocket_1x08_P2.54mm_Vertical" H 12750 1900 50  0001 C CNN
F 3 "~" H 12750 1900 50  0001 C CNN
	1    12750 1900
	1    0    0    1   
$EndComp
$Comp
L Connector_Generic:Conn_01x06 J3
U 1 1 5E40586E
P 12750 2650
F 0 "J3" H 12700 2950 50  0000 L CNN
F 1 "Conn_01x06" V 12850 2400 50  0000 L CNN
F 2 "Connector_PinSocket_2.54mm:PinSocket_1x06_P2.54mm_Vertical" H 12750 2650 50  0001 C CNN
F 3 "~" H 12750 2650 50  0001 C CNN
	1    12750 2650
	1    0    0    1   
$EndComp
$Comp
L Connector_Generic:Conn_01x08 J7
U 1 1 5E406A6A
P 13250 2950
F 0 "J7" H 13250 3350 50  0000 C CNN
F 1 "Conn_01x08" V 13350 2900 50  0000 C CNN
F 2 "Connector_PinSocket_2.54mm:PinSocket_1x08_P2.54mm_Vertical" H 13250 2950 50  0001 C CNN
F 3 "~" H 13250 2950 50  0001 C CNN
	1    13250 2950
	-1   0    0    1   
$EndComp
$Comp
L Connector_Generic:Conn_01x10 J6
U 1 1 5E403417
P 13250 2000
F 0 "J6" H 13250 1400 50  0000 C CNN
F 1 "Conn_01x10" V 13350 2000 50  0000 C CNN
F 2 "Connector_PinSocket_2.54mm:PinSocket_1x10_P2.54mm_Vertical" H 13250 2000 50  0001 C CNN
F 3 "~" H 13250 2000 50  0001 C CNN
	1    13250 2000
	-1   0    0    1   
$EndComp
$Comp
L Device:R_Small R5
U 1 1 5E441ED3
P 4650 4850
F 0 "R5" V 4454 4850 50  0000 C CNN
F 1 "1k" V 4545 4850 50  0000 C CNN
F 2 "Resistor_SMD:R_0805_2012Metric" H 4650 4850 50  0001 C CNN
F 3 "~" H 4650 4850 50  0001 C CNN
	1    4650 4850
	0    1    1    0   
$EndComp
$Comp
L power:+5V #PWR016
U 1 1 5E4447D9
P 4950 4750
F 0 "#PWR016" H 4950 4600 50  0001 C CNN
F 1 "+5V" H 4965 4923 50  0000 C CNN
F 2 "" H 4950 4750 50  0001 C CNN
F 3 "" H 4950 4750 50  0001 C CNN
	1    4950 4750
	1    0    0    -1  
$EndComp
Wire Wire Line
	4750 4850 4950 4850
Wire Wire Line
	4950 4850 4950 4750
$Comp
L Switch:SW_Push SW1
U 1 1 5E484F0C
P 6600 3100
F 0 "SW1" H 6600 2950 50  0000 C CNN
F 1 "SW_Push" H 6600 3050 50  0000 C CNN
F 2 "digikey-footprints:Switch_Tactile_SMD_6x6mm" H 6600 3300 50  0001 C CNN
F 3 "~" H 6600 3300 50  0001 C CNN
	1    6600 3100
	1    0    0    -1  
$EndComp
$Comp
L power:GND #PWR019
U 1 1 5E486011
P 6400 3200
F 0 "#PWR019" H 6400 2950 50  0001 C CNN
F 1 "GND" H 6405 3027 50  0000 C CNN
F 2 "" H 6400 3200 50  0001 C CNN
F 3 "" H 6400 3200 50  0001 C CNN
	1    6400 3200
	1    0    0    -1  
$EndComp
Wire Wire Line
	6400 3100 6400 3200
Wire Wire Line
	6800 3100 6800 3000
Connection ~ 6800 3000
Text Label 6300 2850 0    50   ~ 0
DTR
$Comp
L Device:C_Small C12
U 1 1 5E4AA690
P 6650 2850
F 0 "C12" V 6750 2850 50  0000 C CNN
F 1 "100nF" V 6550 2850 50  0000 C CNN
F 2 "Capacitor_SMD:C_0805_2012Metric" H 6650 2850 50  0001 C CNN
F 3 "~" H 6650 2850 50  0001 C CNN
	1    6650 2850
	0    1    1    0   
$EndComp
Wire Wire Line
	6300 2850 6550 2850
Wire Wire Line
	6750 2850 6800 2850
Connection ~ 6800 2850
Wire Wire Line
	6800 2850 6800 3000
Wire Wire Line
	13450 3250 13650 3250
Wire Wire Line
	13450 3150 13650 3150
Text Label 13650 3250 2    50   ~ 0
RXI
Text Label 13650 3150 2    50   ~ 0
TXO
Wire Wire Line
	13450 3050 13650 3050
Wire Wire Line
	13450 2950 13650 2950
Wire Wire Line
	13450 2850 13650 2850
Text Label 13650 3050 2    50   ~ 0
D2
Text Label 13650 2950 2    50   ~ 0
D3
Text Label 13650 2850 2    50   ~ 0
D4
Wire Wire Line
	13450 2750 13650 2750
Wire Wire Line
	13450 2650 13650 2650
Wire Wire Line
	13450 2550 13650 2550
Wire Wire Line
	13450 2400 13650 2400
Wire Wire Line
	13450 2300 13650 2300
Wire Wire Line
	13450 2200 13650 2200
Text Label 13650 2750 2    50   ~ 0
D5
Text Label 13650 2650 2    50   ~ 0
D6
Text Label 13650 2550 2    50   ~ 0
D7
Text Label 13650 2400 2    50   ~ 0
D8
Text Label 13650 2300 2    50   ~ 0
D9
Text Label 13650 2200 2    50   ~ 0
D10
Wire Wire Line
	13450 2100 13650 2100
Wire Wire Line
	13450 2000 13650 2000
Text Label 13650 2100 2    50   ~ 0
MOSI
Text Label 13650 2000 2    50   ~ 0
MISO
Text Label 13650 1900 2    50   ~ 0
SCK
Wire Wire Line
	13450 1900 13650 1900
$Comp
L power:GND #PWR033
U 1 1 5E48E2F6
P 13800 1900
F 0 "#PWR033" H 13800 1650 50  0001 C CNN
F 1 "GND" H 13805 1727 50  0000 C CNN
F 2 "" H 13800 1900 50  0001 C CNN
F 3 "" H 13800 1900 50  0001 C CNN
	1    13800 1900
	1    0    0    -1  
$EndComp
Wire Wire Line
	13450 1800 13800 1800
Wire Wire Line
	13800 1800 13800 1900
Wire Wire Line
	12550 2850 12350 2850
Wire Wire Line
	12550 2750 12350 2750
Wire Wire Line
	12550 2650 12350 2650
Wire Wire Line
	12550 2550 12350 2550
Wire Wire Line
	12550 2450 12350 2450
Wire Wire Line
	12550 2350 12350 2350
Text Label 12350 2850 0    50   ~ 0
A0
Text Label 12350 2750 0    50   ~ 0
A1
Text Label 12350 2650 0    50   ~ 0
A2
Text Label 12350 2550 0    50   ~ 0
A3
Text Label 12350 2450 0    50   ~ 0
A4
Text Label 12350 2350 0    50   ~ 0
A5
Wire Wire Line
	3900 4850 3900 4950
Wire Wire Line
	4100 4850 3900 4850
Wire Wire Line
	4400 4850 4550 4850
$Comp
L power:GND #PWR013
U 1 1 5E442D25
P 3900 4950
F 0 "#PWR013" H 3900 4700 50  0001 C CNN
F 1 "GND" H 3905 4777 50  0000 C CNN
F 2 "" H 3900 4950 50  0001 C CNN
F 3 "" H 3900 4950 50  0001 C CNN
	1    3900 4950
	1    0    0    -1  
$EndComp
$Comp
L Device:LED D3
U 1 1 5E4424AA
P 4250 4850
F 0 "D3" H 4243 5066 50  0000 C CNN
F 1 "PWRLED" H 4243 4975 50  0000 C CNN
F 2 "LED_SMD:LED_0805_2012Metric" H 4250 4850 50  0001 C CNN
F 3 "~" H 4250 4850 50  0001 C CNN
	1    4250 4850
	1    0    0    -1  
$EndComp
Wire Wire Line
	6950 4600 7200 4600
Wire Wire Line
	13450 1600 13650 1600
Wire Wire Line
	13450 1500 13650 1500
Text Label 13650 1600 2    50   ~ 0
A4
Text Label 13650 1500 2    50   ~ 0
A5
$Comp
L power:+5V #PWR032
U 1 1 5E5FD838
P 13800 1600
F 0 "#PWR032" H 13800 1450 50  0001 C CNN
F 1 "+5V" H 13815 1773 50  0000 C CNN
F 2 "" H 13800 1600 50  0001 C CNN
F 3 "" H 13800 1600 50  0001 C CNN
	1    13800 1600
	1    0    0    -1  
$EndComp
Wire Wire Line
	13800 1700 13450 1700
Wire Wire Line
	13800 1600 13800 1700
$Comp
L power:+5V #PWR023
U 1 1 5E6108BF
P 12150 1800
F 0 "#PWR023" H 12150 1650 50  0001 C CNN
F 1 "+5V" H 12165 1973 50  0000 C CNN
F 2 "" H 12150 1800 50  0001 C CNN
F 3 "" H 12150 1800 50  0001 C CNN
	1    12150 1800
	-1   0    0    -1  
$EndComp
$Comp
L power:GND #PWR024
U 1 1 5E447F5C
P 12150 2150
F 0 "#PWR024" H 12150 1900 50  0001 C CNN
F 1 "GND" H 12155 1977 50  0000 C CNN
F 2 "" H 12150 2150 50  0001 C CNN
F 3 "" H 12150 2150 50  0001 C CNN
	1    12150 2150
	1    0    0    -1  
$EndComp
$Comp
L power:VBUS #PWR029
U 1 1 5E506693
P 12550 2200
F 0 "#PWR029" H 12550 2050 50  0001 C CNN
F 1 "VBUS" V 12550 2400 50  0000 C CNN
F 2 "" H 12550 2200 50  0001 C CNN
F 3 "" H 12550 2200 50  0001 C CNN
	1    12550 2200
	0    -1   -1   0   
$EndComp
Wire Wire Line
	12150 2000 12550 2000
Wire Wire Line
	12550 2100 12150 2100
Wire Wire Line
	12150 1900 12550 1900
$Comp
L power:+3.3V #PWR025
U 1 1 5E5440CE
P 12250 1700
F 0 "#PWR025" H 12250 1550 50  0001 C CNN
F 1 "+3.3V" H 12265 1873 50  0000 C CNN
F 2 "" H 12250 1700 50  0001 C CNN
F 3 "" H 12250 1700 50  0001 C CNN
	1    12250 1700
	1    0    0    -1  
$EndComp
Wire Wire Line
	12250 1700 12250 1800
Wire Wire Line
	12250 1800 12550 1800
Text Label 12300 1700 0    50   ~ 0
RESET
Wire Wire Line
	12300 1700 12550 1700
$Comp
L power:+5V #PWR026
U 1 1 5E57C122
P 12400 1500
F 0 "#PWR026" H 12400 1350 50  0001 C CNN
F 1 "+5V" H 12415 1673 50  0000 C CNN
F 2 "" H 12400 1500 50  0001 C CNN
F 3 "" H 12400 1500 50  0001 C CNN
	1    12400 1500
	-1   0    0    -1  
$EndComp
Wire Wire Line
	12400 1500 12400 1600
Wire Wire Line
	12400 1600 12550 1600
NoConn ~ 12550 1500
Wire Wire Line
	7800 5600 7800 5650
Wire Wire Line
	7800 5650 7700 5650
Connection ~ 7700 5650
Wire Wire Line
	7700 5650 7700 5600
$Comp
L Connector_Generic:Conn_01x08 J4
U 1 1 5E6AF7F9
P 13050 4600
F 0 "J4" H 13000 4100 50  0000 L CNN
F 1 "Conn_01x08" V 13150 4300 50  0000 L CNN
F 2 "Connector_PinHeader_2.54mm:PinHeader_1x08_P2.54mm_Vertical" H 13050 4600 50  0001 C CNN
F 3 "~" H 13050 4600 50  0001 C CNN
	1    13050 4600
	1    0    0    1   
$EndComp
$Comp
L Connector_Generic:Conn_01x06 J8
U 1 1 5E6AF7FF
P 13050 5350
F 0 "J8" H 13000 5650 50  0000 L CNN
F 1 "Conn_01x06" V 13150 5100 50  0000 L CNN
F 2 "Connector_PinHeader_2.54mm:PinHeader_1x06_P2.54mm_Vertical" H 13050 5350 50  0001 C CNN
F 3 "~" H 13050 5350 50  0001 C CNN
	1    13050 5350
	1    0    0    1   
$EndComp
$Comp
L Connector_Generic:Conn_01x10 J9
U 1 1 5E6AF80B
P 13550 4700
F 0 "J9" H 13550 4100 50  0000 C CNN
F 1 "Conn_01x10" V 13650 4700 50  0000 C CNN
F 2 "Connector_PinHeader_2.54mm:PinHeader_1x10_P2.54mm_Vertical" H 13550 4700 50  0001 C CNN
F 3 "~" H 13550 4700 50  0001 C CNN
	1    13550 4700
	-1   0    0    1   
$EndComp
Wire Wire Line
	13750 5950 13950 5950
Wire Wire Line
	13750 5850 13950 5850
Text Label 13950 5950 2    50   ~ 0
RXI
Text Label 13950 5850 2    50   ~ 0
TXO
Wire Wire Line
	13750 5750 13950 5750
Wire Wire Line
	13750 5650 13950 5650
Wire Wire Line
	13750 5550 13950 5550
Text Label 13950 5750 2    50   ~ 0
D2
Text Label 13950 5650 2    50   ~ 0
D3
Text Label 13950 5550 2    50   ~ 0
D4
Wire Wire Line
	13750 5450 13950 5450
Wire Wire Line
	13750 5350 13950 5350
Wire Wire Line
	13750 5250 13950 5250
Wire Wire Line
	13750 5100 13950 5100
Wire Wire Line
	13750 5000 13950 5000
Wire Wire Line
	13750 4900 13950 4900
Text Label 13950 5450 2    50   ~ 0
D5
Text Label 13950 5350 2    50   ~ 0
D6
Text Label 13950 5250 2    50   ~ 0
D7
Text Label 13950 5100 2    50   ~ 0
D8
Text Label 13950 5000 2    50   ~ 0
D9
Text Label 13950 4900 2    50   ~ 0
D10
Wire Wire Line
	13750 4800 13950 4800
Wire Wire Line
	13750 4700 13950 4700
Text Label 13950 4800 2    50   ~ 0
MOSI
Text Label 13950 4700 2    50   ~ 0
MISO
Text Label 13950 4600 2    50   ~ 0
SCK
Wire Wire Line
	13750 4600 13950 4600
$Comp
L power:GND #PWR0102
U 1 1 5E6AF82D
P 14100 4600
F 0 "#PWR0102" H 14100 4350 50  0001 C CNN
F 1 "GND" H 14105 4427 50  0000 C CNN
F 2 "" H 14100 4600 50  0001 C CNN
F 3 "" H 14100 4600 50  0001 C CNN
	1    14100 4600
	1    0    0    -1  
$EndComp
Wire Wire Line
	13750 4500 14100 4500
Wire Wire Line
	14100 4500 14100 4600
Wire Wire Line
	12850 5550 12650 5550
Wire Wire Line
	12850 5450 12650 5450
Wire Wire Line
	12850 5350 12650 5350
Wire Wire Line
	12850 5250 12650 5250
Wire Wire Line
	12850 5150 12650 5150
Wire Wire Line
	12850 5050 12650 5050
Text Label 12650 5550 0    50   ~ 0
A0
Text Label 12650 5450 0    50   ~ 0
A1
Text Label 12650 5350 0    50   ~ 0
A2
Text Label 12650 5250 0    50   ~ 0
A3
Text Label 12650 5150 0    50   ~ 0
A4
Text Label 12650 5050 0    50   ~ 0
A5
Wire Wire Line
	13750 4300 13950 4300
Wire Wire Line
	13750 4200 13950 4200
Text Label 13950 4300 2    50   ~ 0
A4
Text Label 13950 4200 2    50   ~ 0
A5
$Comp
L power:+5V #PWR0103
U 1 1 5E6AF845
P 14100 4300
F 0 "#PWR0103" H 14100 4150 50  0001 C CNN
F 1 "+5V" H 14115 4473 50  0000 C CNN
F 2 "" H 14100 4300 50  0001 C CNN
F 3 "" H 14100 4300 50  0001 C CNN
	1    14100 4300
	1    0    0    -1  
$EndComp
Wire Wire Line
	14100 4400 13750 4400
Wire Wire Line
	14100 4300 14100 4400
$Comp
L power:+5V #PWR0104
U 1 1 5E6AF84D
P 12450 4500
F 0 "#PWR0104" H 12450 4350 50  0001 C CNN
F 1 "+5V" H 12465 4673 50  0000 C CNN
F 2 "" H 12450 4500 50  0001 C CNN
F 3 "" H 12450 4500 50  0001 C CNN
	1    12450 4500
	-1   0    0    -1  
$EndComp
Wire Wire Line
	12450 4500 12450 4600
$Comp
L power:GND #PWR0105
U 1 1 5E6AF854
P 12450 4850
F 0 "#PWR0105" H 12450 4600 50  0001 C CNN
F 1 "GND" H 12455 4677 50  0000 C CNN
F 2 "" H 12450 4850 50  0001 C CNN
F 3 "" H 12450 4850 50  0001 C CNN
	1    12450 4850
	1    0    0    -1  
$EndComp
$Comp
L power:VBUS #PWR0106
U 1 1 5E6AF85A
P 12850 4900
F 0 "#PWR0106" H 12850 4750 50  0001 C CNN
F 1 "VBUS" V 12850 5100 50  0000 C CNN
F 2 "" H 12850 4900 50  0001 C CNN
F 3 "" H 12850 4900 50  0001 C CNN
	1    12850 4900
	0    -1   -1   0   
$EndComp
Wire Wire Line
	12450 4850 12450 4800
Wire Wire Line
	12450 4700 12850 4700
Wire Wire Line
	12850 4800 12450 4800
Connection ~ 12450 4800
Wire Wire Line
	12450 4800 12450 4700
Wire Wire Line
	12450 4600 12850 4600
$Comp
L power:+3.3V #PWR0107
U 1 1 5E6AF866
P 12550 4400
F 0 "#PWR0107" H 12550 4250 50  0001 C CNN
F 1 "+3.3V" H 12565 4573 50  0000 C CNN
F 2 "" H 12550 4400 50  0001 C CNN
F 3 "" H 12550 4400 50  0001 C CNN
	1    12550 4400
	1    0    0    -1  
$EndComp
Wire Wire Line
	12550 4400 12550 4500
Wire Wire Line
	12550 4500 12850 4500
Text Label 12600 4400 0    50   ~ 0
RESET
Wire Wire Line
	12600 4400 12850 4400
$Comp
L power:+5V #PWR0108
U 1 1 5E6AF870
P 12700 4200
F 0 "#PWR0108" H 12700 4050 50  0001 C CNN
F 1 "+5V" H 12715 4373 50  0000 C CNN
F 2 "" H 12700 4200 50  0001 C CNN
F 3 "" H 12700 4200 50  0001 C CNN
	1    12700 4200
	-1   0    0    -1  
$EndComp
Wire Wire Line
	12700 4200 12700 4300
Wire Wire Line
	12700 4300 12850 4300
NoConn ~ 12850 4200
$Comp
L power:GND #PWR?
U 1 1 5F4E6E44
P 7700 5700
F 0 "#PWR?" H 7700 5450 50  0001 C CNN
F 1 "GND" H 7705 5527 50  0000 C CNN
F 2 "" H 7700 5700 50  0001 C CNN
F 3 "" H 7700 5700 50  0001 C CNN
	1    7700 5700
	1    0    0    -1  
$EndComp
Wire Wire Line
	12150 2000 12150 2100
Wire Wire Line
	12150 1800 12150 1900
Connection ~ 12150 2100
Wire Wire Line
	12150 2100 12150 2150
Text Label 5900 5950 0    50   ~ 0
A0
Wire Wire Line
	4800 6450 4800 6600
Wire Wire Line
	4800 6600 4950 6600
Wire Wire Line
	5500 7000 5500 7050
Wire Wire Line
	5500 6600 5500 6700
Wire Wire Line
	5350 6600 5500 6600
Connection ~ 5500 6600
Wire Wire Line
	5500 6600 5750 6600
Text Label 5750 6600 2    50   ~ 0
D2
$Comp
L Device:R R?
U 1 1 5FA927BF
P 4200 6850
F 0 "R?" H 4270 6896 50  0000 L CNN
F 1 "10k" H 4270 6805 50  0000 L CNN
F 2 "Resistor_SMD:R_0805_2012Metric" V 4130 6850 50  0001 C CNN
F 3 "~" H 4200 6850 50  0001 C CNN
	1    4200 6850
	1    0    0    -1  
$EndComp
$Comp
L power:+5V #PWR?
U 1 1 5FA927CB
P 3500 6450
F 0 "#PWR?" H 3500 6300 50  0001 C CNN
F 1 "+5V" H 3515 6623 50  0000 C CNN
F 2 "" H 3500 6450 50  0001 C CNN
F 3 "" H 3500 6450 50  0001 C CNN
	1    3500 6450
	1    0    0    -1  
$EndComp
$Comp
L power:GND #PWR?
U 1 1 5FA927D1
P 4200 7050
F 0 "#PWR?" H 4200 6800 50  0001 C CNN
F 1 "GND" H 4205 6877 50  0000 C CNN
F 2 "" H 4200 7050 50  0001 C CNN
F 3 "" H 4200 7050 50  0001 C CNN
	1    4200 7050
	1    0    0    -1  
$EndComp
Wire Wire Line
	3500 6450 3500 6600
Wire Wire Line
	3500 6600 3650 6600
Wire Wire Line
	4200 7000 4200 7050
Wire Wire Line
	4200 6600 4200 6700
Wire Wire Line
	4050 6600 4200 6600
Connection ~ 4200 6600
Wire Wire Line
	4200 6600 4450 6600
Text Label 4450 6600 2    50   ~ 0
D3
Wire Wire Line
	6750 3600 6750 3550
Wire Wire Line
	6750 3550 6550 3550
Wire Wire Line
	6550 3750 6750 3750
Wire Wire Line
	6750 3750 6750 3700
Wire Wire Line
	6450 3550 6550 3550
Connection ~ 6550 3550
Wire Wire Line
	6550 3750 6450 3750
Connection ~ 6550 3750
Wire Wire Line
	6150 3800 6150 3750
Wire Wire Line
	6150 3550 6250 3550
Wire Wire Line
	6250 3750 6150 3750
Connection ~ 6150 3750
Wire Wire Line
	6150 3750 6150 3550
Wire Wire Line
	6800 2350 6800 2450
$Comp
L Connector_Generic:Conn_01x08 J10
U 1 1 5E6AF805
P 13550 5650
F 0 "J10" H 13550 6050 50  0000 C CNN
F 1 "Conn_01x08" V 13650 5600 50  0000 C CNN
F 2 "Connector_PinHeader_2.54mm:PinHeader_1x08_P2.54mm_Vertical" H 13550 5650 50  0001 C CNN
F 3 "~" H 13550 5650 50  0001 C CNN
	1    13550 5650
	-1   0    0    1   
$EndComp
$Comp
L Device:LED_RGB D?
U 1 1 5FD2D2B3
P 2250 5600
F 0 "D?" H 2250 6097 50  0000 C CNN
F 1 "LED_RGB" H 2250 6006 50  0000 C CNN
F 2 "" H 2250 5550 50  0001 C CNN
F 3 "~" H 2250 5550 50  0001 C CNN
	1    2250 5600
	1    0    0    -1  
$EndComp
$Comp
L power:GND #PWR?
U 1 1 5FD2FEC5
P 1700 6000
F 0 "#PWR?" H 1700 5750 50  0001 C CNN
F 1 "GND" H 1705 5827 50  0000 C CNN
F 2 "" H 1700 6000 50  0001 C CNN
F 3 "" H 1700 6000 50  0001 C CNN
	1    1700 6000
	1    0    0    -1  
$EndComp
$Comp
L Device:R R?
U 1 1 5FD32260
P 1900 5800
F 0 "R?" V 1850 5800 50  0000 C CNN
F 1 "R" V 1950 5800 50  0000 C CNN
F 2 "" V 1830 5800 50  0001 C CNN
F 3 "~" H 1900 5800 50  0001 C CNN
	1    1900 5800
	0    1    1    0   
$EndComp
$Comp
L Device:R R?
U 1 1 5FD33AA7
P 1900 5600
F 0 "R?" V 1850 5600 50  0000 C CNN
F 1 "R" V 1950 5600 50  0000 C CNN
F 2 "" V 1830 5600 50  0001 C CNN
F 3 "~" H 1900 5600 50  0001 C CNN
	1    1900 5600
	0    1    1    0   
$EndComp
$Comp
L Device:R R?
U 1 1 5FD342AD
P 1900 5400
F 0 "R?" V 1850 5400 50  0000 C CNN
F 1 "R" V 1950 5400 50  0000 C CNN
F 2 "" V 1830 5400 50  0001 C CNN
F 3 "~" H 1900 5400 50  0001 C CNN
	1    1900 5400
	0    1    1    0   
$EndComp
Wire Wire Line
	1750 5600 1700 5600
Wire Wire Line
	1700 5600 1700 5800
Wire Wire Line
	1750 5800 1700 5800
Connection ~ 1700 5800
Wire Wire Line
	1700 5800 1700 6000
Wire Wire Line
	1700 5600 1700 5400
Wire Wire Line
	1700 5400 1750 5400
Connection ~ 1700 5600
Wire Wire Line
	2450 5400 2650 5400
Text Label 2650 5400 2    50   ~ 0
D4
Wire Wire Line
	2450 5600 2650 5600
Wire Wire Line
	2450 5800 2650 5800
Text Label 2650 5600 2    50   ~ 0
D5
Text Label 2650 5800 2    50   ~ 0
D6
$EndSCHEMATC
