"Source:","C:\Users\amkkp\git\floodlight\deployable\1050ma-module\1050ma-module.kicad_sch"
"Date:","2/12/2023 11:24:17 AM"
"Tool:","Eeschema (6.0.10)"
"Generator:","C:\Program Files\KiCad\6.0\bin\scripting\plugins/bom_csv_grouped_by_value.py"
"Component Count:","26"

"Individual Components:"

"Item","Qty","Reference(s)","Value","LibPart","Footprint","Datasheet"
"","","C1","4.7uF","Device:C","Capacitor_SMD:C_1210_3225Metric","~"
"","","C2","4.7uF","Device:C","Capacitor_SMD:C_1210_3225Metric","~"
"","","C3","4.7uF","Device:C","Capacitor_SMD:C_0603_1608Metric","~"
"","","C4","0.01uF","Device:C","Capacitor_SMD:C_0603_1608Metric","~"
"","","C5","1nF","Device:C","Capacitor_SMD:C_0603_1608Metric","~"
"","","C6","4.7uF","Device:C","Capacitor_SMD:C_1210_3225Metric","~"
"","","C7","4.7uF","Device:C","Capacitor_SMD:C_1210_3225Metric","~"
"","","D1","D_Schottky_AAK","Device:D_Schottky_AAK","Package_TO_SOT_SMD:TO-277A","~"
"","","J1","Conn_01x06","Connector_Generic:Conn_01x06","Connector_PinSocket_2.54mm:PinSocket_1x06_P2.54mm_Vertical","~"
"","","J2","Conn_01x06","Connector_Generic:Conn_01x06","Connector_PinSocket_2.54mm:PinSocket_1x06_P2.54mm_Vertical","~"
"","","L1","L","Device:L","Inductor_SMD:L_Bourns_SRP1770TA_16.9x16.9mm","~"
"","","Q1","SIR606BDP","Transistor_FET:Si7450DP","Package_SO:PowerPAK_SO-8_Single","https://www.vishay.com/docs/71432/si7450dp.pdf"
"","","Q2","SIS110DN-T1-GE3","Transistor_FET:Si7450DP","Package_SO:Vishay_PowerPAK_1212-8_Single","https://www.vishay.com/docs/71432/si7450dp.pdf"
"","","R1","1M","Device:R","Resistor_SMD:R_0402_1005Metric","~"
"","","R2","1M","Device:R","Resistor_SMD:R_0603_1608Metric","~"
"","","R3","184k","Device:R","Resistor_SMD:R_0402_1005Metric","~"
"","","R4","0","Device:R","Resistor_SMD:R_0402_1005Metric","~"
"","","R5","14k","Device:R","Resistor_SMD:R_0603_1608Metric","~"
"","","R6","0.075","Device:R","Resistor_SMD:R_2512_6332Metric","~"
"","","R7","10k","Device:R","Resistor_SMD:R_0402_1005Metric","~"
"","","R8","0","Device:R","Resistor_SMD:R_0402_1005Metric","~"
"","","R9","0.025","Device:R","Resistor_SMD:R_2512_6332Metric","~"
"","","R10","28.7k","Device:R","Resistor_SMD:R_0402_1005Metric","~"
"","","R11","10k","Device:R","Resistor_SMD:R_0402_1005Metric","~"
"","","TP1","TestPoint","Connector:TestPoint","TestPoint:TestPoint_Pad_D1.0mm","~"
"","","U1","LT3756xMSE-1","Driver_LED:LT3756xMSE-1","Package_SO:MSOP-16-1EP_3x4mm_P0.5mm_EP1.65x2.85mm","https://www.analog.com/media/en/technical-documentation/data-sheets/375612fb.pdf"



"Collated Components:"

"Item","Qty","Reference(s)","Value","LibPart","Footprint","Datasheet"
"1","4","C1, C2, C6, C7","4.7uF","Device:C","Capacitor_SMD:C_1210_3225Metric","~"
"2","1","C3","4.7uF","Device:C","Capacitor_SMD:C_0603_1608Metric","~"
"3","1","C4","0.01uF","Device:C","Capacitor_SMD:C_0603_1608Metric","~"
"4","1","C5","1nF","Device:C","Capacitor_SMD:C_0603_1608Metric","~"
"5","1","D1","D_Schottky_AAK","Device:D_Schottky_AAK","Package_TO_SOT_SMD:TO-277A","~"
"6","2","J1, J2","Conn_01x06","Connector_Generic:Conn_01x06","Connector_PinSocket_2.54mm:PinSocket_1x06_P2.54mm_Vertical","~"
"7","1","L1","L","Device:L","Inductor_SMD:L_Bourns_SRP1770TA_16.9x16.9mm","~"
"8","1","Q1","SIR606BDP","Transistor_FET:Si7450DP","Package_SO:PowerPAK_SO-8_Single","https://www.vishay.com/docs/71432/si7450dp.pdf"
"9","1","Q2","SIS110DN-T1-GE3","Transistor_FET:Si7450DP","Package_SO:Vishay_PowerPAK_1212-8_Single","https://www.vishay.com/docs/71432/si7450dp.pdf"
"10","1","R1","1M","Device:R","Resistor_SMD:R_0402_1005Metric","~"
"11","1","R2","1M","Device:R","Resistor_SMD:R_0603_1608Metric","~"
"12","1","R3","184k","Device:R","Resistor_SMD:R_0402_1005Metric","~"
"13","2","R4, R8","0","Device:R","Resistor_SMD:R_0402_1005Metric","~"
"14","1","R5","14k","Device:R","Resistor_SMD:R_0603_1608Metric","~"
"15","1","R6","0.075","Device:R","Resistor_SMD:R_2512_6332Metric","~"
"16","2","R7, R11","10k","Device:R","Resistor_SMD:R_0402_1005Metric","~"
"17","1","R9","0.025","Device:R","Resistor_SMD:R_2512_6332Metric","~"
"18","1","R10","28.7k","Device:R","Resistor_SMD:R_0402_1005Metric","~"
"19","1","TP1","TestPoint","Connector:TestPoint","TestPoint:TestPoint_Pad_D1.0mm","~"
"20","1","U1","LT3756xMSE-1","Driver_LED:LT3756xMSE-1","Package_SO:MSOP-16-1EP_3x4mm_P0.5mm_EP1.65x2.85mm","https://www.analog.com/media/en/technical-documentation/data-sheets/375612fb.pdf"
