(module SOT-26 (layer F.Cu) (tedit 5F080473)
  (fp_text reference REF** (at 0 6.35) (layer F.SilkS)
    (effects (font (size 1 1) (thickness 0.15)))
  )
  (fp_text value SOT-26 (at 0 -6.35) (layer F.Fab)
    (effects (font (size 1 1) (thickness 0.15)))
  )
  (pad 4 smd rect (at 1.001 -1.1625) (size 0.508 0.699) (layers F.Cu F.Paste F.Mask))
  (pad 5 smd rect (at 0 -1.1625) (size 0.508 0.699) (layers F.Cu F.Paste F.Mask))
  (pad 6 smd rect (at -1.001 -1.1625) (size 0.508 0.699) (layers F.Cu F.Paste F.Mask))
  (pad 2 smd rect (at 0 1.1625 180) (size 0.508 0.699) (layers F.Cu F.Paste F.Mask))
  (pad 1 smd rect (at -1.001 1.1625 180) (size 0.508 0.699) (layers F.Cu F.Paste F.Mask))
  (pad 3 smd rect (at 1.001 1.1625 180) (size 0.508 0.699) (layers F.Cu F.Paste F.Mask))
)
