%TF.GenerationSoftware,KiCad,Pcbnew,7.0.2*%
%TF.CreationDate,2023-10-17T22:26:11-07:00*%
%TF.ProjectId,base-2ch,62617365-2d32-4636-982e-6b696361645f,rev?*%
%TF.SameCoordinates,Original*%
%TF.FileFunction,Paste,Top*%
%TF.FilePolarity,Positive*%
%FSLAX46Y46*%
G04 Gerber Fmt 4.6, Leading zero omitted, Abs format (unit mm)*
G04 Created by KiCad (PCBNEW 7.0.2) date 2023-10-17 22:26:11*
%MOMM*%
%LPD*%
G01*
G04 APERTURE LIST*
G04 Aperture macros list*
%AMRoundRect*
0 Rectangle with rounded corners*
0 $1 Rounding radius*
0 $2 $3 $4 $5 $6 $7 $8 $9 X,Y pos of 4 corners*
0 Add a 4 corners polygon primitive as box body*
4,1,4,$2,$3,$4,$5,$6,$7,$8,$9,$2,$3,0*
0 Add four circle primitives for the rounded corners*
1,1,$1+$1,$2,$3*
1,1,$1+$1,$4,$5*
1,1,$1+$1,$6,$7*
1,1,$1+$1,$8,$9*
0 Add four rect primitives between the rounded corners*
20,1,$1+$1,$2,$3,$4,$5,0*
20,1,$1+$1,$4,$5,$6,$7,0*
20,1,$1+$1,$6,$7,$8,$9,0*
20,1,$1+$1,$8,$9,$2,$3,0*%
%AMRotRect*
0 Rectangle, with rotation*
0 The origin of the aperture is its center*
0 $1 length*
0 $2 width*
0 $3 Rotation angle, in degrees counterclockwise*
0 Add horizontal line*
21,1,$1,$2,0,0,$3*%
%AMFreePoly0*
4,1,6,0.325000,0.000000,0.325000,-0.150000,-0.175000,-0.150000,-0.175000,0.150000,0.175000,0.150000,0.325000,0.000000,0.325000,0.000000,$1*%
%AMFreePoly1*
4,1,6,0.325000,0.000000,0.175000,-0.150000,-0.175000,-0.150000,-0.175000,0.150000,0.325000,0.150000,0.325000,0.000000,0.325000,0.000000,$1*%
%AMFreePoly2*
4,1,6,0.150000,-0.175000,-0.150000,-0.175000,-0.150000,0.175000,0.000000,0.325000,0.150000,0.325000,0.150000,-0.175000,0.150000,-0.175000,$1*%
%AMFreePoly3*
4,1,6,0.150000,0.175000,0.150000,-0.175000,-0.150000,-0.175000,-0.150000,0.325000,0.000000,0.325000,0.150000,0.175000,0.150000,0.175000,$1*%
%AMFreePoly4*
4,1,6,0.175000,-0.150000,-0.175000,-0.150000,-0.325000,0.000000,-0.325000,0.150000,0.175000,0.150000,0.175000,-0.150000,0.175000,-0.150000,$1*%
%AMFreePoly5*
4,1,7,0.175000,-0.150000,-0.175000,-0.150000,-0.325000,-0.150000,-0.325000,0.000000,-0.175000,0.150000,0.175000,0.150000,0.175000,-0.150000,0.175000,-0.150000,$1*%
%AMFreePoly6*
4,1,6,0.150000,-0.175000,0.000000,-0.325000,-0.150000,-0.325000,-0.150000,0.175000,0.150000,0.175000,0.150000,-0.175000,0.150000,-0.175000,$1*%
%AMFreePoly7*
4,1,6,0.150000,-0.325000,0.000000,-0.325000,-0.150000,-0.175000,-0.150000,0.175000,0.150000,0.175000,0.150000,-0.325000,0.150000,-0.325000,$1*%
G04 Aperture macros list end*
%ADD10RoundRect,0.250000X-1.000000X-0.650000X1.000000X-0.650000X1.000000X0.650000X-1.000000X0.650000X0*%
%ADD11RoundRect,0.250000X1.100000X-0.325000X1.100000X0.325000X-1.100000X0.325000X-1.100000X-0.325000X0*%
%ADD12RoundRect,0.225000X0.225000X0.250000X-0.225000X0.250000X-0.225000X-0.250000X0.225000X-0.250000X0*%
%ADD13RoundRect,0.200000X0.275000X-0.200000X0.275000X0.200000X-0.275000X0.200000X-0.275000X-0.200000X0*%
%ADD14R,0.650000X1.050000*%
%ADD15RoundRect,0.225000X-0.250000X0.225000X-0.250000X-0.225000X0.250000X-0.225000X0.250000X0.225000X0*%
%ADD16RoundRect,0.250000X0.925000X-0.787500X0.925000X0.787500X-0.925000X0.787500X-0.925000X-0.787500X0*%
%ADD17RoundRect,0.250000X0.475000X-0.250000X0.475000X0.250000X-0.475000X0.250000X-0.475000X-0.250000X0*%
%ADD18R,2.500000X1.800000*%
%ADD19RoundRect,0.225000X0.335876X0.017678X0.017678X0.335876X-0.335876X-0.017678X-0.017678X-0.335876X0*%
%ADD20R,0.558800X1.981200*%
%ADD21R,0.600000X0.650000*%
%ADD22RoundRect,0.150000X-0.150000X0.512500X-0.150000X-0.512500X0.150000X-0.512500X0.150000X0.512500X0*%
%ADD23RoundRect,0.250000X1.025000X-0.787500X1.025000X0.787500X-1.025000X0.787500X-1.025000X-0.787500X0*%
%ADD24RoundRect,0.200000X-0.275000X0.200000X-0.275000X-0.200000X0.275000X-0.200000X0.275000X0.200000X0*%
%ADD25RotRect,0.600000X1.100000X45.000000*%
%ADD26RoundRect,0.200000X0.200000X0.275000X-0.200000X0.275000X-0.200000X-0.275000X0.200000X-0.275000X0*%
%ADD27R,1.800000X7.500000*%
%ADD28R,0.500000X0.375000*%
%ADD29R,0.650000X0.300000*%
%ADD30FreePoly0,0.000000*%
%ADD31R,0.700000X0.300000*%
%ADD32FreePoly1,0.000000*%
%ADD33FreePoly2,0.000000*%
%ADD34R,0.300000X0.700000*%
%ADD35FreePoly3,0.000000*%
%ADD36FreePoly4,0.000000*%
%ADD37FreePoly5,0.000000*%
%ADD38FreePoly6,0.000000*%
%ADD39FreePoly7,0.000000*%
%ADD40RoundRect,0.150000X-0.150000X-0.700000X0.150000X-0.700000X0.150000X0.700000X-0.150000X0.700000X0*%
%ADD41RoundRect,0.250000X-0.250000X-1.150000X0.250000X-1.150000X0.250000X1.150000X-0.250000X1.150000X0*%
G04 APERTURE END LIST*
%TO.C,U6*%
G36*
X158498800Y-69975000D02*
G01*
X156946200Y-69975000D01*
X156946200Y-68866900D01*
X158498800Y-68866900D01*
X158498800Y-69975000D01*
G37*
G36*
X156746200Y-69975000D02*
G01*
X155193600Y-69975000D01*
X155193600Y-68866900D01*
X156746200Y-68866900D01*
X156746200Y-69975000D01*
G37*
G36*
X158498800Y-71283100D02*
G01*
X156946200Y-71283100D01*
X156946200Y-70175000D01*
X158498800Y-70175000D01*
X158498800Y-71283100D01*
G37*
G36*
X156746200Y-71283100D02*
G01*
X155193600Y-71283100D01*
X155193600Y-70175000D01*
X156746200Y-70175000D01*
X156746200Y-71283100D01*
G37*
%TO.C,U7*%
G36*
X141298800Y-69625000D02*
G01*
X139746200Y-69625000D01*
X139746200Y-68516900D01*
X141298800Y-68516900D01*
X141298800Y-69625000D01*
G37*
G36*
X139546200Y-69625000D02*
G01*
X137993600Y-69625000D01*
X137993600Y-68516900D01*
X139546200Y-68516900D01*
X139546200Y-69625000D01*
G37*
G36*
X141298800Y-70933100D02*
G01*
X139746200Y-70933100D01*
X139746200Y-69825000D01*
X141298800Y-69825000D01*
X141298800Y-70933100D01*
G37*
G36*
X139546200Y-70933100D02*
G01*
X137993600Y-70933100D01*
X137993600Y-69825000D01*
X139546200Y-69825000D01*
X139546200Y-70933100D01*
G37*
%TD*%
D10*
%TO.C,D5*%
X164870000Y-105650000D03*
X168870000Y-105650000D03*
%TD*%
D11*
%TO.C,C7*%
X138146200Y-64700000D03*
X138146200Y-61750000D03*
%TD*%
D12*
%TO.C,C3*%
X164321200Y-65675000D03*
X162771200Y-65675000D03*
%TD*%
D13*
%TO.C,R9*%
X165750000Y-100975000D03*
X165750000Y-99325000D03*
%TD*%
D14*
%TO.C,SW1*%
X151225000Y-98675000D03*
X151225000Y-94525000D03*
X153375000Y-98675000D03*
X153375000Y-94525000D03*
%TD*%
D15*
%TO.C,C15*%
X136000000Y-71225000D03*
X136000000Y-72775000D03*
%TD*%
D16*
%TO.C,C10*%
X149446200Y-79887500D03*
X149446200Y-74962500D03*
%TD*%
D17*
%TO.C,C4*%
X163346200Y-78925000D03*
X163346200Y-77025000D03*
%TD*%
D18*
%TO.C,D1*%
X154946200Y-76075000D03*
X158946200Y-76075000D03*
%TD*%
D11*
%TO.C,C1*%
X152081200Y-65000000D03*
X152081200Y-62050000D03*
%TD*%
D12*
%TO.C,C8*%
X146821200Y-65725000D03*
X145271200Y-65725000D03*
%TD*%
D19*
%TO.C,C13*%
X141423008Y-90148008D03*
X140326992Y-89051992D03*
%TD*%
D13*
%TO.C,R1*%
X141700000Y-106500000D03*
X141700000Y-104850000D03*
%TD*%
D20*
%TO.C,U6*%
X158751200Y-67611200D03*
X157481200Y-67611200D03*
X156211200Y-67611200D03*
X154941200Y-67611200D03*
X154941200Y-72538800D03*
X156211200Y-72538800D03*
X157481200Y-72538800D03*
X158751200Y-72538800D03*
%TD*%
D21*
%TO.C,D3*%
X138200000Y-112800000D03*
X136800000Y-112800000D03*
X138200000Y-113700000D03*
X136800000Y-113700000D03*
%TD*%
D22*
%TO.C,U2*%
X133975000Y-90325000D03*
X133025000Y-90325000D03*
X132075000Y-90325000D03*
X132075000Y-92600000D03*
X133975000Y-92600000D03*
%TD*%
D23*
%TO.C,C5*%
X167246200Y-81100000D03*
X167246200Y-74875000D03*
%TD*%
D13*
%TO.C,R15*%
X177100000Y-108050000D03*
X177100000Y-106400000D03*
%TD*%
D18*
%TO.C,D2*%
X137746200Y-75825000D03*
X141746200Y-75825000D03*
%TD*%
D24*
%TO.C,R7*%
X157750000Y-100925000D03*
X157750000Y-102575000D03*
%TD*%
D12*
%TO.C,C18*%
X133975000Y-94400000D03*
X132425000Y-94400000D03*
%TD*%
D15*
%TO.C,C14*%
X153100000Y-71650000D03*
X153100000Y-73200000D03*
%TD*%
D25*
%TO.C,Y1*%
X138332017Y-91346967D03*
X139321967Y-90357017D03*
%TD*%
D19*
%TO.C,C16*%
X137496016Y-92696016D03*
X136400000Y-91600000D03*
%TD*%
D26*
%TO.C,R10*%
X164371200Y-67375000D03*
X162721200Y-67375000D03*
%TD*%
D27*
%TO.C,L1*%
X154946200Y-82475000D03*
X160546200Y-82475000D03*
%TD*%
D26*
%TO.C,R18*%
X180350000Y-104900000D03*
X178700000Y-104900000D03*
%TD*%
D11*
%TO.C,C2*%
X155481200Y-65000000D03*
X155481200Y-62050000D03*
%TD*%
D28*
%TO.C,MOSFET1*%
X160900000Y-100400000D03*
D29*
X160825000Y-100937500D03*
D28*
X160900000Y-101475000D03*
X162600000Y-101475000D03*
D29*
X162675000Y-100937500D03*
D28*
X162600000Y-100400000D03*
%TD*%
D20*
%TO.C,U7*%
X141551200Y-67261200D03*
X140281200Y-67261200D03*
X139011200Y-67261200D03*
X137741200Y-67261200D03*
X137741200Y-72188800D03*
X139011200Y-72188800D03*
X140281200Y-72188800D03*
X141551200Y-72188800D03*
%TD*%
D13*
%TO.C,R4*%
X140025000Y-99125000D03*
X140025000Y-97475000D03*
%TD*%
D17*
%TO.C,C9*%
X146146200Y-78525000D03*
X146146200Y-76625000D03*
%TD*%
D13*
%TO.C,R14*%
X177100000Y-104950000D03*
X177100000Y-103300000D03*
%TD*%
D26*
%TO.C,R12*%
X146871200Y-67325000D03*
X145221200Y-67325000D03*
%TD*%
D24*
%TO.C,R6*%
X159350000Y-100925000D03*
X159350000Y-102575000D03*
%TD*%
D12*
%TO.C,C19*%
X133900000Y-88500000D03*
X132350000Y-88500000D03*
%TD*%
D15*
%TO.C,C11*%
X140015000Y-94450000D03*
X140015000Y-96000000D03*
%TD*%
D13*
%TO.C,R8*%
X164150000Y-100975000D03*
X164150000Y-99325000D03*
%TD*%
D24*
%TO.C,R13*%
X143646200Y-67225000D03*
X143646200Y-68875000D03*
%TD*%
D11*
%TO.C,C6*%
X134746200Y-64700000D03*
X134746200Y-61750000D03*
%TD*%
D15*
%TO.C,C17*%
X136875000Y-95725000D03*
X136875000Y-97275000D03*
%TD*%
D13*
%TO.C,R2*%
X143300000Y-106500000D03*
X143300000Y-104850000D03*
%TD*%
%TO.C,R5*%
X138465000Y-99125000D03*
X138465000Y-97475000D03*
%TD*%
D30*
%TO.C,U1*%
X141025000Y-93500000D03*
D31*
X141200000Y-94000000D03*
X141200000Y-94500000D03*
X141200000Y-95000000D03*
D32*
X141025000Y-95500000D03*
D33*
X141500000Y-95975000D03*
D34*
X142000000Y-95800000D03*
X142500000Y-95800000D03*
X143000000Y-95800000D03*
D35*
X143500000Y-95975000D03*
D36*
X143975000Y-95500000D03*
D31*
X143800000Y-95000000D03*
X143800000Y-94500000D03*
X143800000Y-94000000D03*
D37*
X143975000Y-93500000D03*
D38*
X143500000Y-93025000D03*
D34*
X143000000Y-93200000D03*
X142500000Y-93200000D03*
X142000000Y-93200000D03*
D39*
X141500000Y-93025000D03*
%TD*%
D15*
%TO.C,C12*%
X138475000Y-94450000D03*
X138475000Y-96000000D03*
%TD*%
D24*
%TO.C,R11*%
X160946200Y-67275000D03*
X160946200Y-68925000D03*
%TD*%
D10*
%TO.C,D6*%
X156870000Y-105650000D03*
X160870000Y-105650000D03*
%TD*%
D40*
%TO.C,J11*%
X148650000Y-113950000D03*
X149900000Y-113950000D03*
X151150000Y-113950000D03*
D41*
X146800000Y-110600000D03*
X153000000Y-110600000D03*
%TD*%
D27*
%TO.C,L2*%
X137646200Y-82225000D03*
X143246200Y-82225000D03*
%TD*%
D13*
%TO.C,R3*%
X144900000Y-106500000D03*
X144900000Y-104850000D03*
%TD*%
M02*
