%TF.GenerationSoftware,KiCad,Pcbnew,(6.0.10)*%
%TF.CreationDate,2023-02-12T02:30:40-08:00*%
%TF.ProjectId,LH351C,4c483335-3143-42e6-9b69-6361645f7063,rev?*%
%TF.SameCoordinates,Original*%
%TF.FileFunction,Soldermask,Top*%
%TF.FilePolarity,Negative*%
%FSLAX46Y46*%
G04 Gerber Fmt 4.6, Leading zero omitted, Abs format (unit mm)*
G04 Created by KiCad (PCBNEW (6.0.10)) date 2023-02-12 02:30:40*
%MOMM*%
%LPD*%
G01*
G04 APERTURE LIST*
G04 Aperture macros list*
%AMRoundRect*
0 Rectangle with rounded corners*
0 $1 Rounding radius*
0 $2 $3 $4 $5 $6 $7 $8 $9 X,Y pos of 4 corners*
0 Add a 4 corners polygon primitive as box body*
4,1,4,$2,$3,$4,$5,$6,$7,$8,$9,$2,$3,0*
0 Add four circle primitives for the rounded corners*
1,1,$1+$1,$2,$3*
1,1,$1+$1,$4,$5*
1,1,$1+$1,$6,$7*
1,1,$1+$1,$8,$9*
0 Add four rect primitives between the rounded corners*
20,1,$1+$1,$2,$3,$4,$5,0*
20,1,$1+$1,$4,$5,$6,$7,0*
20,1,$1+$1,$6,$7,$8,$9,0*
20,1,$1+$1,$8,$9,$2,$3,0*%
G04 Aperture macros list end*
%ADD10RoundRect,0.150000X0.150000X0.275000X-0.150000X0.275000X-0.150000X-0.275000X0.150000X-0.275000X0*%
%ADD11RoundRect,0.175000X0.175000X0.225000X-0.175000X0.225000X-0.175000X-0.225000X0.175000X-0.225000X0*%
%ADD12R,0.500000X0.400000*%
%ADD13R,3.300000X0.500000*%
%ADD14R,3.300000X1.300000*%
%ADD15RoundRect,0.250000X-0.250000X-0.750000X0.250000X-0.750000X0.250000X0.750000X-0.250000X0.750000X0*%
%ADD16C,1.900000*%
%ADD17C,2.200000*%
%ADD18C,4.300000*%
G04 APERTURE END LIST*
D10*
%TO.C,J1*%
X123100000Y-166500000D03*
X121900000Y-166500000D03*
D11*
X120750000Y-162725000D03*
X124250000Y-162725000D03*
%TD*%
D12*
%TO.C,D2*%
X100000000Y-113150000D03*
D13*
X100000000Y-113600000D03*
X100000000Y-116400000D03*
D12*
X100000000Y-116850000D03*
D14*
X100000000Y-115000000D03*
%TD*%
D15*
%TO.C,J2*%
X123200000Y-164600000D03*
%TD*%
D13*
%TO.C,D22*%
X160000000Y-113600000D03*
D12*
X160000000Y-113150000D03*
X160000000Y-116850000D03*
D13*
X160000000Y-116400000D03*
D14*
X160000000Y-115000000D03*
%TD*%
D12*
%TO.C,D11*%
X130000000Y-98150000D03*
D13*
X130000000Y-98600000D03*
X130000000Y-101400000D03*
D12*
X130000000Y-101850000D03*
D14*
X130000000Y-100000000D03*
%TD*%
D13*
%TO.C,D18*%
X145000000Y-131400000D03*
D12*
X145000000Y-131850000D03*
X145000000Y-128150000D03*
D13*
X145000000Y-128600000D03*
D14*
X145000000Y-130000000D03*
%TD*%
D13*
%TO.C,D14*%
X130000000Y-143600000D03*
D12*
X130000000Y-143150000D03*
X130000000Y-146850000D03*
D13*
X130000000Y-146400000D03*
D14*
X130000000Y-145000000D03*
%TD*%
D12*
%TO.C,D7*%
X115000000Y-146850000D03*
D13*
X115000000Y-146400000D03*
D12*
X115000000Y-143150000D03*
D13*
X115000000Y-143600000D03*
D14*
X115000000Y-145000000D03*
%TD*%
D16*
%TO.C,H1*%
X152500000Y-152500000D03*
X152500000Y-107500000D03*
X107500000Y-107500000D03*
X107500000Y-152500000D03*
%TD*%
D12*
%TO.C,D13*%
X130000000Y-128150000D03*
D13*
X130000000Y-128600000D03*
D12*
X130000000Y-131850000D03*
D13*
X130000000Y-131400000D03*
D14*
X130000000Y-130000000D03*
%TD*%
D13*
%TO.C,D24*%
X160000000Y-143600000D03*
D12*
X160000000Y-143150000D03*
D13*
X160000000Y-146400000D03*
D12*
X160000000Y-146850000D03*
D14*
X160000000Y-145000000D03*
%TD*%
D12*
%TO.C,D23*%
X160000000Y-128150000D03*
D13*
X160000000Y-128600000D03*
X160000000Y-131400000D03*
D12*
X160000000Y-131850000D03*
D14*
X160000000Y-130000000D03*
%TD*%
D13*
%TO.C,D9*%
X115000000Y-116400000D03*
D12*
X115000000Y-116850000D03*
X115000000Y-113150000D03*
D13*
X115000000Y-113600000D03*
D14*
X115000000Y-115000000D03*
%TD*%
D17*
%TO.C,H6*%
X95500000Y-152500000D03*
%TD*%
D12*
%TO.C,D17*%
X145000000Y-146850000D03*
D13*
X145000000Y-146400000D03*
D12*
X145000000Y-143150000D03*
D13*
X145000000Y-143600000D03*
D14*
X145000000Y-145000000D03*
%TD*%
D12*
%TO.C,D19*%
X145000000Y-116850000D03*
D13*
X145000000Y-116400000D03*
D12*
X145000000Y-113150000D03*
D13*
X145000000Y-113600000D03*
D14*
X145000000Y-115000000D03*
%TD*%
D13*
%TO.C,D12*%
X130000000Y-113600000D03*
D12*
X130000000Y-113150000D03*
X130000000Y-116850000D03*
D13*
X130000000Y-116400000D03*
D14*
X130000000Y-115000000D03*
%TD*%
D13*
%TO.C,D20*%
X145000000Y-101400000D03*
D12*
X145000000Y-101850000D03*
X145000000Y-98150000D03*
D13*
X145000000Y-98600000D03*
D14*
X145000000Y-100000000D03*
%TD*%
D13*
%TO.C,D21*%
X160000000Y-98600000D03*
D12*
X160000000Y-98150000D03*
D13*
X160000000Y-101400000D03*
D12*
X160000000Y-101850000D03*
D14*
X160000000Y-100000000D03*
%TD*%
D12*
%TO.C,D15*%
X130000000Y-158150000D03*
D13*
X130000000Y-158600000D03*
D12*
X130000000Y-161850000D03*
D13*
X130000000Y-161400000D03*
D14*
X130000000Y-160000000D03*
%TD*%
D12*
%TO.C,D4*%
X100000000Y-143150000D03*
D13*
X100000000Y-143600000D03*
X100000000Y-146400000D03*
D12*
X100000000Y-146850000D03*
D14*
X100000000Y-145000000D03*
%TD*%
D13*
%TO.C,D5*%
X100000000Y-158600000D03*
D12*
X100000000Y-158150000D03*
D13*
X100000000Y-161400000D03*
D12*
X100000000Y-161850000D03*
D14*
X100000000Y-160000000D03*
%TD*%
D12*
%TO.C,D6*%
X115000000Y-161850000D03*
D13*
X115000000Y-161400000D03*
D12*
X115000000Y-158150000D03*
D13*
X115000000Y-158600000D03*
D14*
X115000000Y-160000000D03*
%TD*%
D12*
%TO.C,D3*%
X100000000Y-128150000D03*
D13*
X100000000Y-128600000D03*
X100000000Y-131400000D03*
D12*
X100000000Y-131850000D03*
D14*
X100000000Y-130000000D03*
%TD*%
D13*
%TO.C,D25*%
X160000000Y-158600000D03*
D12*
X160000000Y-158150000D03*
D13*
X160000000Y-161400000D03*
D12*
X160000000Y-161850000D03*
D14*
X160000000Y-160000000D03*
%TD*%
D17*
%TO.C,H7*%
X164500000Y-152500000D03*
%TD*%
D12*
%TO.C,D10*%
X115000000Y-101850000D03*
D13*
X115000000Y-101400000D03*
X115000000Y-98600000D03*
D12*
X115000000Y-98150000D03*
D14*
X115000000Y-100000000D03*
%TD*%
D13*
%TO.C,D1*%
X100000000Y-98600000D03*
D12*
X100000000Y-98150000D03*
X100000000Y-101850000D03*
D13*
X100000000Y-101400000D03*
D14*
X100000000Y-100000000D03*
%TD*%
D12*
%TO.C,D8*%
X115000000Y-131850000D03*
D13*
X115000000Y-131400000D03*
D12*
X115000000Y-128150000D03*
D13*
X115000000Y-128600000D03*
D14*
X115000000Y-130000000D03*
%TD*%
D15*
%TO.C,J3*%
X121800000Y-164600000D03*
%TD*%
D17*
%TO.C,H8*%
X164500000Y-107500000D03*
%TD*%
D13*
%TO.C,D16*%
X145000000Y-161400000D03*
D12*
X145000000Y-161850000D03*
X145000000Y-158150000D03*
D13*
X145000000Y-158600000D03*
D14*
X145000000Y-160000000D03*
%TD*%
D18*
%TO.C,REF\u002A\u002A*%
X122500000Y-152500000D03*
%TD*%
D17*
%TO.C,H5*%
X95500000Y-107500000D03*
%TD*%
M02*
