
(module CONV_PDSE1-S5-S3-S (layer F.Cu) (tedit 63E04878)
  (descr "")
  (fp_text reference REF** (at -2.625 -4.635 0) (layer F.SilkS)
    (effects (font (size 1.0 1.0) (thickness 0.15)))
  )
  (fp_text value CONV_PDSE1-S5-S3-S (at 5.63 4.635 0) (layer F.Fab)
    (effects (font (size 1.0 1.0) (thickness 0.15)))
  )
  (pad 1 thru_hole rect (at -3.81 2.1) (size 1.508 1.508) (drill 1.0) (layers *.Cu *.Mask))
  (pad 2 thru_hole circle (at -1.27 2.1) (size 1.508 1.508) (drill 1.0) (layers *.Cu *.Mask))
  (pad 3 thru_hole circle (at 1.27 2.1) (size 1.508 1.508) (drill 1.0) (layers *.Cu *.Mask))
  (pad 4 thru_hole circle (at 3.81 2.1) (size 1.508 1.508) (drill 1.0) (layers *.Cu *.Mask))
  (fp_circle (center -6.81 2.1) (end -6.71 2.1) (layer F.SilkS) (width 0.2))
  (fp_circle (center -6.81 2.1) (end -6.71 2.1) (layer F.Fab) (width 0.2))
  (fp_line (start 5.8 3.0) (end 5.8 -3.0) (layer F.SilkS) (width 0.127))
  (fp_line (start 5.8 -3.0) (end -5.8 -3.0) (layer F.SilkS) (width 0.127))
  (fp_line (start -5.8 -3.0) (end -5.8 3.0) (layer F.SilkS) (width 0.127))
  (fp_line (start 5.8 -3.0) (end -5.8 -3.0) (layer F.Fab) (width 0.127))
  (fp_line (start 5.8 3.0) (end 4.89 3.0) (layer F.SilkS) (width 0.127))
  (fp_line (start -4.89 3.0) (end -5.8 3.0) (layer F.SilkS) (width 0.127))
  (fp_line (start -5.8 -3.0) (end -5.8 3.0) (layer F.Fab) (width 0.127))
  (fp_line (start -5.8 3.0) (end 5.8 3.0) (layer F.Fab) (width 0.127))
  (fp_line (start 5.8 3.0) (end 5.8 -3.0) (layer F.Fab) (width 0.127))
  (fp_line (start 6.05 -3.25) (end -6.05 -3.25) (layer F.CrtYd) (width 0.05))
  (fp_line (start -6.05 -3.25) (end -6.05 3.25) (layer F.CrtYd) (width 0.05))
  (fp_line (start -6.05 3.25) (end 6.05 3.25) (layer F.CrtYd) (width 0.05))
  (fp_line (start 6.05 3.25) (end 6.05 -3.25) (layer F.CrtYd) (width 0.05))
)