(footprint "LOGO" (version 20210606) (generator bitmap2component) (layer "F.Cu")
  (at 0 0)
(attr board_only exclude_from_pos_files exclude_from_bom)
 (fp_text reference "G***" (at 0 0) (layer F.SilkS)
  (effects (font (thickness 0.3)))
  )
  (fp_text value "LOGO" (at 0.75 0) (layer F.SilkS) hide
  (effects (font (thickness 0.3)))
  )
  (fp_poly (pts (xy -2.847879 -0.718384) (xy -3.046718 -0.718265) (xy -3.245556 -0.718146) (xy -3.161500 -0.639366) (xy -3.074838 -0.548584) (xy -3.020255 -0.462692) (xy -2.985355 -0.360990) (xy -2.979206 -0.334970)
     (xy -2.967559 -0.188953) (xy -2.991682 -0.040501) (xy -3.047586 0.090228) (xy -3.069754 0.122709) (xy -3.135208 0.186707) (xy -3.226743 0.249923) (xy -3.281296 0.278908) (xy -3.357144 0.311279)
     (xy -3.427608 0.331475) (xy -3.509053 0.342274) (xy -3.617842 0.346457) (xy -3.681718 0.346925) (xy -3.816640 0.349009) (xy -3.908238 0.356043) (xy -3.964429 0.370244) (xy -3.993127 0.393830)
     (xy -4.002251 0.429020) (xy -4.002425 0.436773) (xy -3.992241 0.476680) (xy -3.957521 0.505262) (xy -3.892007 0.524112) (xy -3.789445 0.534823) (xy -3.643579 0.538985) (xy -3.600020 0.539189)
     (xy -3.356956 0.548483) (xy -3.159663 0.576579) (xy -3.005649 0.624862) (xy -2.892420 0.694713) (xy -2.817484 0.787514) (xy -2.778347 0.904649) (xy -2.770910 0.998894) (xy -2.792764 1.148134)
     (xy -2.858413 1.270831) (xy -2.967989 1.367140) (xy -3.121621 1.437217) (xy -3.146365 1.444859) (xy -3.238815 1.464339) (xy -3.365733 1.481082) (xy -3.510300 1.493873) (xy -3.655695 1.501499)
     (xy -3.785095 1.502744) (xy -3.874142 1.497387) (xy -4.060879 1.467155) (xy -4.202681 1.426071) (xy -4.305312 1.371182) (xy -4.374538 1.299534) (xy -4.411876 1.221880) (xy -4.427023 1.104850)
     (xy -4.408233 1.046555) (xy -4.040440 1.046555) (xy -4.010761 1.119654) (xy -3.954307 1.168650) (xy -3.906341 1.186742) (xy -3.834514 1.197321) (xy -3.729403 1.201217) (xy -3.600916 1.199753)
     (xy -3.469835 1.195238) (xy -3.379635 1.188057) (xy -3.319892 1.176503) (xy -3.280182 1.158868) (xy -3.260966 1.144054) (xy -3.217556 1.080857) (xy -3.210862 1.014087) (xy -3.241257 0.960613)
     (xy -3.256698 0.950196) (xy -3.299953 0.940352) (xy -3.383313 0.932158) (xy -3.495579 0.926365) (xy -3.625549 0.923721) (xy -3.653472 0.923637) (xy -3.794629 0.924285) (xy -3.893032 0.926951)
     (xy -3.957230 0.932717) (xy -3.995774 0.942668) (xy -4.017214 0.957885) (xy -4.025861 0.970802) (xy -4.040440 1.046555) (xy -4.408233 1.046555) (xy -4.393078 0.999538) (xy -4.311557 0.909195)
     (xy -4.246067 0.866559) (xy -4.182668 0.829321) (xy -4.148176 0.803698) (xy -4.147981 0.795953) (xy -4.185497 0.780174) (xy -4.241282 0.741714) (xy -4.257022 0.728932) (xy -4.309842 0.674446)
     (xy -4.332243 0.614725) (xy -4.335960 0.551198) (xy -4.328776 0.470361) (xy -4.300941 0.416827) (xy -4.267650 0.386153) (xy -4.201119 0.343424) (xy -4.139367 0.317369) (xy -4.093521 0.303480)
     (xy -4.079394 0.295645) (xy -4.096014 0.275546) (xy -4.139308 0.229840) (xy -4.191895 0.176473) (xy -4.291925 0.042852) (xy -4.347332 -0.107660) (xy -4.354520 -0.221515) (xy -3.920592 -0.221515)
     (xy -3.907599 -0.111707) (xy -3.864880 -0.019300) (xy -3.847054 0.001431) (xy -3.775075 0.041461) (xy -3.679325 0.054987) (xy -3.579543 0.042703) (xy -3.495471 0.005306) (xy -3.475299 -0.011662)
     (xy -3.431364 -0.085223) (xy -3.410006 -0.182953) (xy -3.411825 -0.285498) (xy -3.437418 -0.373503) (xy -3.462984 -0.409852) (xy -3.544723 -0.461247) (xy -3.645742 -0.483078) (xy -3.747973 -0.475044)
     (xy -3.833351 -0.436843) (xy -3.855792 -0.416417) (xy -3.903457 -0.329495) (xy -3.920592 -0.221515) (xy -4.354520 -0.221515) (xy -4.357312 -0.265748) (xy -4.321057 -0.422098) (xy -4.254402 -0.545103)
     (xy -4.161125 -0.636203) (xy -4.030433 -0.708012) (xy -3.873760 -0.756944) (xy -3.702540 -0.779413) (xy -3.530432 -0.772138) (xy -3.386667 -0.752629) (xy -3.386667 -0.827278) (xy -3.362173 -0.911778)
     (xy -3.311671 -0.976923) (xy -3.269040 -1.015509) (xy -3.226991 -1.037973) (xy -3.170031 -1.048628) (xy -3.082670 -1.051787) (xy -3.042277 -1.051919) (xy -2.847879 -1.051919) )(layer F.SilkS) (width  0.000000)
  )
  (fp_poly (pts (xy -12.394014 -0.763136) (xy -12.239789 -0.725348) (xy -12.161239 -0.692740) (xy -12.049770 -0.614267) (xy -11.944520 -0.502393) (xy -11.859818 -0.374383) (xy -11.819162 -0.280564) (xy -11.790300 -0.144925)
     (xy -11.778076 0.017439) (xy -11.782627 0.184667) (xy -11.804086 0.334898) (xy -11.815103 0.377699) (xy -11.876546 0.511338) (xy -11.973831 0.640404) (xy -12.092758 0.748972) (xy -12.205503 0.815543)
     (xy -12.375563 0.866011) (xy -12.565188 0.884624) (xy -12.752340 0.869568) (xy -12.783821 0.863196) (xy -12.964064 0.798848) (xy -13.113731 0.695330) (xy -13.230491 0.556313) (xy -13.312009 0.385467)
     (xy -13.355953 0.186466) (xy -13.358394 0.051313) (xy -12.879596 0.051313) (xy -12.875028 0.208086) (xy -12.859347 0.323197) (xy -12.829588 0.405646) (xy -12.782786 0.464433) (xy -12.731749 0.500098)
     (xy -12.646181 0.526743) (xy -12.541887 0.530146) (xy -12.440810 0.511978) (xy -12.364894 0.473911) (xy -12.362664 0.471974) (xy -12.295503 0.385561) (xy -12.254846 0.266610) (xy -12.238762 0.108905)
     (xy -12.238325 0.071380) (xy -12.246053 -0.095257) (xy -12.270338 -0.220541) (xy -12.313266 -0.312347) (xy -12.352000 -0.357654) (xy -12.439713 -0.409009) (xy -12.550120 -0.431184) (xy -12.662131 -0.421752)
     (xy -12.720971 -0.400100) (xy -12.787003 -0.355586) (xy -12.832698 -0.295915) (xy -12.861238 -0.212035) (xy -12.875803 -0.094891) (xy -12.879596 0.051313) (xy -13.358394 0.051313) (xy -13.359989 -0.037022)
     (xy -13.359567 -0.042777) (xy -13.322947 -0.253858) (xy -13.248071 -0.431327) (xy -13.135919 -0.574080) (xy -12.987469 -0.681012) (xy -12.803700 -0.751019) (xy -12.716014 -0.769178) (xy -12.560277 -0.778783)
     )(layer F.SilkS) (width  0.000000)
  )
  (fp_poly (pts (xy -10.570903 -0.755294) (xy -10.388193 -0.695797) (xy -10.237804 -0.597462) (xy -10.121125 -0.461222) (xy -10.039542 -0.288011) (xy -10.033755 -0.269950) (xy -9.989053 -0.056592) (xy -9.985696 0.151228)
     (xy -10.021809 0.346173) (xy -10.095520 0.520901) (xy -10.204953 0.668075) (xy -10.292732 0.744314) (xy -10.439287 0.822651) (xy -10.614104 0.871322) (xy -10.801591 0.887302) (xy -10.957395 0.873261)
     (xy -11.143556 0.816267) (xy -11.299927 0.719830) (xy -11.424019 0.587956) (xy -11.513345 0.424648) (xy -11.565416 0.233911) (xy -11.575927 0.051313) (xy -11.109293 0.051313) (xy -11.101003 0.212662)
     (xy -11.074142 0.334229) (xy -11.025728 0.425121) (xy -10.967831 0.483167) (xy -10.873872 0.527435) (xy -10.760447 0.537299) (xy -10.646986 0.511824) (xy -10.620979 0.499869) (xy -10.556936 0.455734)
     (xy -10.512624 0.394924) (xy -10.485033 0.308617) (xy -10.471150 0.187994) (xy -10.467879 0.051313) (xy -10.471661 -0.100186) (xy -10.483535 -0.207687) (xy -10.504291 -0.277985) (xy -10.506798 -0.283062)
     (xy -10.578610 -0.369238) (xy -10.681752 -0.419842) (xy -10.806788 -0.430464) (xy -10.819536 -0.429225) (xy -10.931949 -0.400113) (xy -11.014776 -0.339040) (xy -11.070358 -0.242122) (xy -11.101036 -0.105474)
     (xy -11.109293 0.051313) (xy -11.575927 0.051313) (xy -11.577744 0.019748) (xy -11.566597 -0.107200) (xy -11.517191 -0.310007) (xy -11.430272 -0.478329) (xy -11.307732 -0.610553) (xy -11.151461 -0.705062)
     (xy -10.963349 -0.760243) (xy -10.784547 -0.775019) )(layer F.SilkS) (width  0.000000)
  )
  (fp_poly (pts (xy -8.261415 0.846667) (xy -8.723233 0.846667) (xy -8.723475 0.699142) (xy -8.723718 0.551616) (xy -8.787944 0.658766) (xy -8.885485 0.775116) (xy -9.011241 0.851272) (xy -9.158959 0.885056)
     (xy -9.322388 0.874287) (xy -9.372245 0.862405) (xy -9.503431 0.804856) (xy -9.611965 0.708584) (xy -9.703690 0.568177) (xy -9.715522 0.544693) (xy -9.762195 0.408712) (xy -9.790090 0.240366)
     (xy -9.799359 0.054984) (xy -9.790151 -0.132105) (xy -9.773654 -0.236040) (xy -9.313334 -0.236040) (xy -9.312425 0.042334) (xy -9.306693 0.210506) (xy -9.287848 0.334380) (xy -9.251525 0.420217)
     (xy -9.193362 0.474280) (xy -9.108996 0.502831) (xy -8.994062 0.512132) (xy -8.985046 0.512222) (xy -8.894760 0.507733) (xy -8.834637 0.488504) (xy -8.786208 0.450156) (xy -8.759949 0.421194)
     (xy -8.742224 0.389702) (xy -8.731361 0.345525) (xy -8.725691 0.278506) (xy -8.723541 0.178488) (xy -8.723233 0.067406) (xy -8.724465 -0.058762) (xy -8.727824 -0.168566) (xy -8.732802 -0.250519)
     (xy -8.738895 -0.293135) (xy -8.739170 -0.293901) (xy -8.784035 -0.346288) (xy -8.865883 -0.386294) (xy -8.970810 -0.408137) (xy -9.019575 -0.410505) (xy -9.102627 -0.404185) (xy -9.163695 -0.377805)
     (xy -9.226101 -0.323272) (xy -9.313334 -0.236040) (xy -9.773654 -0.236040) (xy -9.762618 -0.305571) (xy -9.716908 -0.450085) (xy -9.705521 -0.474318) (xy -9.609899 -0.611071) (xy -9.483900 -0.709098)
     (xy -9.334129 -0.765247) (xy -9.167194 -0.776361) (xy -9.093082 -0.766754) (xy -8.957624 -0.720538) (xy -8.848665 -0.634595) (xy -8.781091 -0.543254) (xy -8.723496 -0.448990) (xy -8.723364 -0.942878)
     (xy -8.723233 -1.436767) (xy -8.261415 -1.436767) )(layer F.SilkS) (width  0.000000)
  )
  (fp_poly (pts (xy 5.456143 -1.326703) (xy 5.614989 -1.296465) (xy 5.750359 -1.235253) (xy 5.840605 -1.169203) (xy 5.902165 -1.103715) (xy 5.964358 -1.016895) (xy 6.019363 -0.922635) (xy 6.059365 -0.834827)
     (xy 6.076544 -0.767362) (xy 6.075765 -0.751363) (xy 6.046172 -0.721016) (xy 5.968084 -0.689455) (xy 5.875353 -0.664240) (xy 5.781983 -0.642073) (xy 5.709193 -0.625374) (xy 5.670289 -0.617184)
     (xy 5.667748 -0.616835) (xy 5.651712 -0.638168) (xy 5.629901 -0.692858) (xy 5.622385 -0.716493) (xy 5.564170 -0.832603) (xy 5.473064 -0.910715) (xy 5.354058 -0.947082) (xy 5.312400 -0.949293)
     (xy 5.210286 -0.938282) (xy 5.129636 -0.902353) (xy 5.068425 -0.837157) (xy 5.024627 -0.738349) (xy 4.996218 -0.601582) (xy 4.981171 -0.422508) (xy 4.977373 -0.230330) (xy 4.983349 -0.007594)
     (xy 5.002298 0.169249) (xy 5.035751 0.304327) (xy 5.085239 0.401770) (xy 5.152294 0.465704) (xy 5.238448 0.500260) (xy 5.249198 0.502452) (xy 5.373197 0.502277) (xy 5.481765 0.456314)
     (xy 5.568374 0.369311) (xy 5.626493 0.246015) (xy 5.632594 0.223712) (xy 5.656642 0.171699) (xy 5.692321 0.164868) (xy 5.737619 0.177134) (xy 5.815684 0.197167) (xy 5.907424 0.220084)
     (xy 6.005175 0.247117) (xy 6.059964 0.276002) (xy 6.076689 0.317865) (xy 6.060247 0.383827) (xy 6.019913 0.475624) (xy 5.921925 0.628017) (xy 5.788470 0.748430) (xy 5.626601 0.833612)
     (xy 5.443368 0.880311) (xy 5.245821 0.885276) (xy 5.156969 0.873543) (xy 4.985533 0.827357) (xy 4.847623 0.753894) (xy 4.763184 0.682080) (xy 4.652061 0.544034) (xy 4.570564 0.379332)
     (xy 4.516992 0.182620) (xy 4.489642 -0.051456) (xy 4.485196 -0.192424) (xy 4.493752 -0.450871) (xy 4.524695 -0.668449) (xy 4.579702 -0.851236) (xy 4.660452 -1.005314) (xy 4.736505 -1.103029)
     (xy 4.840602 -1.202055) (xy 4.950280 -1.268490) (xy 5.079644 -1.308382) (xy 5.242796 -1.327781) (xy 5.263177 -1.328911) )(layer F.SilkS) (width  0.000000)
  )
  (fp_poly (pts (xy 14.285713 0.264950) (xy 14.379486 0.296287) (xy 14.457624 0.352601) (xy 14.503472 0.436309) (xy 14.521113 0.555719) (xy 14.521616 0.585600) (xy 14.502317 0.713416) (xy 14.445162 0.807107)
     (xy 14.351258 0.865935) (xy 14.221714 0.889161) (xy 14.079962 0.879692) (xy 14.017559 0.853244) (xy 13.954347 0.801949) (xy 13.945265 0.791770) (xy 13.898990 0.705708) (xy 13.877359 0.598791)
     (xy 13.880858 0.489588) (xy 13.909977 0.396668) (xy 13.933978 0.362458) (xy 14.032950 0.291686) (xy 14.154895 0.258486) )(layer F.SilkS) (width  0.000000)
  )
  (fp_poly (pts (xy 16.220408 -1.308491) (xy 16.368895 -1.262448) (xy 16.490730 -1.186532) (xy 16.596129 -1.076013) (xy 16.603808 -1.065996) (xy 16.697292 -0.905609) (xy 16.766426 -0.710143) (xy 16.810319 -0.490155)
     (xy 16.828081 -0.256204) (xy 16.818819 -0.018847) (xy 16.781643 0.211359) (xy 16.727082 0.394455) (xy 16.637438 0.565792) (xy 16.512431 0.703730) (xy 16.357984 0.805339) (xy 16.180019 0.867692)
     (xy 15.984459 0.887860) (xy 15.778787 0.863274) (xy 15.630941 0.819869) (xy 15.516561 0.760693) (xy 15.418123 0.675739) (xy 15.383891 0.637709) (xy 15.289976 0.493808) (xy 15.218036 0.313488)
     (xy 15.168842 0.107058) (xy 15.143164 -0.115174) (xy 15.142466 -0.229151) (xy 15.624991 -0.229151) (xy 15.628360 -0.021993) (xy 15.639603 0.140431) (xy 15.660164 0.264293) (xy 15.691481 0.355768)
     (xy 15.734997 0.421028) (xy 15.786551 0.462920) (xy 15.892013 0.502108) (xy 16.014894 0.511166) (xy 16.130476 0.489247) (xy 16.161450 0.475777) (xy 16.219285 0.437005) (xy 16.263105 0.383720)
     (xy 16.294907 0.308843) (xy 16.316689 0.205294) (xy 16.330447 0.065995) (xy 16.338178 -0.116136) (xy 16.339082 -0.153939) (xy 16.340985 -0.361368) (xy 16.335767 -0.524878) (xy 16.322210 -0.651522)
     (xy 16.299094 -0.748353) (xy 16.265201 -0.822425) (xy 16.219312 -0.880790) (xy 16.212290 -0.887699) (xy 16.160747 -0.930628) (xy 16.108362 -0.953050) (xy 16.035346 -0.961312) (xy 15.980251 -0.962121)
     (xy 15.890575 -0.959522) (xy 15.833264 -0.947195) (xy 15.789451 -0.918343) (xy 15.752610 -0.880105) (xy 15.706631 -0.820231) (xy 15.672802 -0.752613) (xy 15.649424 -0.668582) (xy 15.634796 -0.559467)
     (xy 15.627219 -0.416597) (xy 15.624992 -0.231302) (xy 15.624991 -0.229151) (xy 15.142466 -0.229151) (xy 15.141770 -0.342900) (xy 15.165431 -0.565813) (xy 15.214917 -0.773605) (xy 15.268254 -0.910808)
     (xy 15.367406 -1.075643) (xy 15.491474 -1.198240) (xy 15.643460 -1.280237) (xy 15.826366 -1.323272) (xy 16.035056 -1.329392) )(layer F.SilkS) (width  0.000000)
  )
  (fp_poly (pts (xy -15.393940 -0.923636) (xy -16.343233 -0.923636) (xy -16.343233 -0.436161) (xy -15.496566 -0.436161) (xy -15.496566 -0.051313) (xy -16.343233 -0.051313) (xy -16.343233 0.846667) (xy -16.805051 0.846667)
     (xy -16.805051 -1.308485) (xy -15.393940 -1.308485) )(layer F.SilkS) (width  0.000000)
  )
  (fp_poly (pts (xy -14.111112 0.487475) (xy -13.623637 0.487475) (xy -13.623637 0.846667) (xy -15.060404 0.846667) (xy -15.060404 0.487475) (xy -14.572930 0.487475) (xy -14.572930 -1.077575) (xy -15.060404 -1.077575)
     (xy -15.060404 -1.436767) (xy -14.111112 -1.436767) )(layer F.SilkS) (width  0.000000)
  )
  (fp_poly (pts (xy -6.978586 0.487475) (xy -6.491112 0.487475) (xy -6.491112 0.846667) (xy -7.927879 0.846667) (xy -7.927879 0.487475) (xy -7.440404 0.487475) (xy -7.440404 -1.077575) (xy -7.927879 -1.077575)
     (xy -7.927879 -1.436767) (xy -6.978586 -1.436767) )(layer F.SilkS) (width  0.000000)
  )
  (fp_poly (pts (xy -5.105657 0.485549) (xy -4.631011 0.500303) (xy -4.623424 0.673485) (xy -4.615838 0.846667) (xy -6.054950 0.846667) (xy -6.054950 0.487475) (xy -5.567475 0.487475) (xy -5.567475 -0.384848)
     (xy -6.054950 -0.384848) (xy -6.054950 -0.744040) (xy -5.105657 -0.744040) )(layer F.SilkS) (width  0.000000)
  )
  (fp_poly (pts (xy -2.129495 -0.457829) (xy -2.045736 -0.567645) (xy -1.946532 -0.676417) (xy -1.842152 -0.741903) (xy -1.718504 -0.771351) (xy -1.642838 -0.774828) (xy -1.483266 -0.756807) (xy -1.355662 -0.700564)
     (xy -1.254424 -0.602828) (xy -1.200687 -0.516615) (xy -1.128889 -0.378989) (xy -1.128889 0.846667) (xy -1.587979 0.846667) (xy -1.595757 0.267085) (xy -1.598398 0.080307) (xy -1.601141 -0.061929)
     (xy -1.604720 -0.166391) (xy -1.609872 -0.239844) (xy -1.617333 -0.289056) (xy -1.627838 -0.320795) (xy -1.642123 -0.341827) (xy -1.660925 -0.358919) (xy -1.664105 -0.361501) (xy -1.744411 -0.399454)
     (xy -1.852089 -0.410505) (xy -1.939095 -0.404808) (xy -1.999545 -0.381776) (xy -2.054499 -0.335509) (xy -2.129495 -0.260513) (xy -2.129495 0.846667) (xy -2.591314 0.846667) (xy -2.591314 -1.436767)
     (xy -2.129495 -1.436767) )(layer F.SilkS) (width  0.000000)
  )
  (fp_poly (pts (xy 0.025656 -0.744040) (xy 0.641414 -0.744040) (xy 0.641414 -0.384848) (xy 0.025656 -0.384848) (xy 0.025656 0.487475) (xy 0.641414 0.487475) (xy 0.641414 0.846667) (xy 0.275808 0.845219)
     (xy 0.122543 0.842379) (xy -0.010949 0.835617) (xy -0.114201 0.825674) (xy -0.176747 0.813292) (xy -0.177161 0.813148) (xy -0.247020 0.773900) (xy -0.319676 0.711295) (xy -0.343929 0.684010)
     (xy -0.423334 0.585495) (xy -0.431303 0.100323) (xy -0.439272 -0.384848) (xy -0.872324 -0.384848) (xy -0.872324 -0.744040) (xy -0.698436 -0.744040) (xy -0.579093 -0.747640) (xy -0.498113 -0.763930)
     (xy -0.448140 -0.801142) (xy -0.421815 -0.867509) (xy -0.411779 -0.971264) (xy -0.410505 -1.066202) (xy -0.410505 -1.308485) (xy 0.025656 -1.308485) )(layer F.SilkS) (width  0.000000)
  )
  (fp_poly (pts (xy 3.670053 -1.322029) (xy 3.795666 -1.293726) (xy 3.949792 -1.222556) (xy 4.075984 -1.112941) (xy 4.168639 -0.972636) (xy 4.222155 -0.809396) (xy 4.233333 -0.687907) (xy 4.220924 -0.559928)
     (xy 4.181434 -0.435319) (xy 4.111463 -0.309551) (xy 4.007617 -0.178092) (xy 3.866495 -0.036414) (xy 3.684703 0.120013) (xy 3.544206 0.230909) (xy 3.260577 0.448990) (xy 3.772612 0.455936)
     (xy 4.284646 0.462881) (xy 4.284646 0.846667) (xy 2.717520 0.846667) (xy 2.724972 0.635449) (xy 2.732424 0.424232) (xy 3.091616 0.123628) (xy 3.284249 -0.040471) (xy 3.438263 -0.179170)
     (xy 3.556829 -0.296844) (xy 3.643119 -0.397869) (xy 3.700305 -0.486618) (xy 3.731557 -0.567468) (xy 3.740048 -0.644793) (xy 3.728949 -0.722969) (xy 3.722463 -0.746609) (xy 3.674029 -0.840802)
     (xy 3.593797 -0.898582) (xy 3.477556 -0.922596) (xy 3.440851 -0.923636) (xy 3.311066 -0.901127) (xy 3.207653 -0.835460) (xy 3.134850 -0.729429) (xy 3.130316 -0.718903) (xy 3.104564 -0.665948)
     (xy 3.085190 -0.641591) (xy 3.084164 -0.641414) (xy 3.055100 -0.649761) (xy 2.990638 -0.671895) (xy 2.903380 -0.703454) (xy 2.880812 -0.711810) (xy 2.786278 -0.748229) (xy 2.731210 -0.774933)
     (xy 2.706566 -0.798937) (xy 2.703305 -0.827255) (xy 2.707177 -0.846507) (xy 2.743825 -0.933457) (xy 2.808324 -1.032115) (xy 2.887198 -1.123766) (xy 2.941643 -1.172138) (xy 3.093229 -1.258364)
     (xy 3.273841 -1.313323) (xy 3.470456 -1.335163) )(layer F.SilkS) (width  0.000000)
  )
  (fp_poly (pts (xy 6.798989 -0.436161) (xy 7.337777 -0.436161) (xy 7.337777 -1.308485) (xy 7.799596 -1.308485) (xy 7.799596 0.846667) (xy 7.337777 0.846667) (xy 7.337777 -0.051313) (xy 6.798989 -0.051313)
     (xy 6.798989 0.846667) (xy 6.310952 0.846667) (xy 6.317647 -0.224495) (xy 6.324343 -1.295656) (xy 6.798989 -1.310410) )(layer F.SilkS) (width  0.000000)
  )
  (fp_poly (pts (xy 10.387090 -0.724798) (xy 10.429515 -0.537912) (xy 10.472174 -0.348577) (xy 10.512343 -0.168982) (xy 10.547299 -0.011318) (xy 10.574318 0.112225) (xy 10.580533 0.141111) (xy 10.608359 0.264406)
     (xy 10.629288 0.340458) (xy 10.644519 0.372697) (xy 10.655250 0.364551) (xy 10.656764 0.359192) (xy 10.667230 0.314129) (xy 10.686582 0.228270) (xy 10.712740 0.110946) (xy 10.743622 -0.028510)
     (xy 10.774073 -0.166767) (xy 10.813887 -0.346317) (xy 10.857224 -0.538925) (xy 10.900048 -0.726835) (xy 10.938323 -0.892292) (xy 10.956270 -0.968535) (xy 11.037015 -1.308485) (xy 11.278406 -1.308485)
     (xy 11.400016 -1.306381) (xy 11.476339 -1.299547) (xy 11.513249 -1.287201) (xy 11.518916 -1.276414) (xy 11.512320 -1.245461) (xy 11.493842 -1.170276) (xy 11.464863 -1.056197) (xy 11.426764 -0.908562)
     (xy 11.380927 -0.732709) (xy 11.328733 -0.533974) (xy 11.271564 -0.317696) (xy 11.241706 -0.205252) (xy 10.965379 0.833839) (xy 10.633245 0.840919) (xy 10.301111 0.848000) (xy 10.024554 -0.198172)
     (xy 9.965599 -0.421992) (xy 9.910974 -0.630928) (xy 9.862040 -0.819658) (xy 9.820157 -0.982863) (xy 9.786686 -1.115221) (xy 9.762989 -1.211413) (xy 9.750426 -1.266117) (xy 9.748746 -1.276414)
     (xy 9.765050 -1.292326) (xy 9.816936 -1.302455) (xy 9.910199 -1.307537) (xy 10.001758 -1.308485) (xy 10.254021 -1.308485) )(layer F.SilkS) (width  0.000000)
  )
  (fp_poly (pts (xy 12.828282 0.459821) (xy 13.277272 0.474647) (xy 13.284810 0.660657) (xy 13.292349 0.846667) (xy 11.776363 0.846667) (xy 11.776363 0.461818) (xy 12.366464 0.461818) (xy 12.366464 -0.243737)
     (xy 12.365690 -0.428007) (xy 12.363505 -0.594325) (xy 12.360116 -0.736140) (xy 12.355728 -0.846902) (xy 12.350550 -0.920063) (xy 12.344786 -0.949071) (xy 12.344227 -0.949293) (xy 12.321475 -0.929898)
     (xy 12.274505 -0.876706) (xy 12.209571 -0.797209) (xy 12.132923 -0.698896) (xy 12.109640 -0.668257) (xy 11.897292 -0.387222) (xy 11.747029 -0.505274) (xy 11.664799 -0.575722) (xy 11.621765 -0.626407)
     (xy 11.618149 -0.651613) (xy 11.640458 -0.681125) (xy 11.687771 -0.743715) (xy 11.754149 -0.831526) (xy 11.833654 -0.936702) (xy 11.877111 -0.994192) (xy 12.114690 -1.308485) (xy 12.828282 -1.308485)
     )(layer F.SilkS) (width  0.000000)
  )
  (fp_poly (pts (xy 2.206464 0.128283) (xy 1.205858 0.128283) (xy 1.205858 -0.307878) (xy 2.206464 -0.307878) )(layer F.SilkS) (width  0.000000)
  )
  (fp_poly (pts (xy -5.190401 -1.447018) (xy -5.110758 -1.398707) (xy -5.066498 -1.314351) (xy -5.054344 -1.205858) (xy -5.067418 -1.090368) (xy -5.110089 -1.012344) (xy -5.187532 -0.967063) (xy -5.304922 -0.949800)
     (xy -5.335400 -0.949293) (xy -5.435091 -0.953936) (xy -5.499330 -0.970337) (xy -5.540388 -0.999175) (xy -5.589570 -1.077584) (xy -5.610328 -1.174815) (xy -5.604048 -1.275441) (xy -5.572117 -1.364037)
     (xy -5.515921 -1.425178) (xy -5.501384 -1.432987) (xy -5.436849 -1.450640) (xy -5.348624 -1.461147) (xy -5.308536 -1.462424) )(layer F.SilkS) (width  0.000000)
  )
  (fp_poly (pts (xy 16.097566 -0.386392) (xy 16.137979 -0.359192) (xy 16.180740 -0.283230) (xy 16.184094 -0.192300) (xy 16.149353 -0.108335) (xy 16.111708 -0.071492) (xy 16.055406 -0.054610) (xy 15.985727 -0.051313)
     (xy 15.883546 -0.061855) (xy 15.827411 -0.093038) (xy 15.799140 -0.157091) (xy 15.792538 -0.239592) (xy 15.806476 -0.318767) (xy 15.839825 -0.372846) (xy 15.842002 -0.374514) (xy 15.918724 -0.405070)
     (xy 16.011705 -0.408626) )(layer F.SilkS) (width  0.000000)
  )
)
