%TF.GenerationSoftware,KiCad,Pcbnew,(6.0.10)*%
%TF.CreationDate,2023-02-13T20:49:28-08:00*%
%TF.ProjectId,1050ma-module,31303530-6d61-42d6-9d6f-64756c652e6b,rev?*%
%TF.SameCoordinates,Original*%
%TF.FileFunction,Soldermask,Top*%
%TF.FilePolarity,Negative*%
%FSLAX46Y46*%
G04 Gerber Fmt 4.6, Leading zero omitted, Abs format (unit mm)*
G04 Created by KiCad (PCBNEW (6.0.10)) date 2023-02-13 20:49:28*
%MOMM*%
%LPD*%
G01*
G04 APERTURE LIST*
G04 Aperture macros list*
%AMRoundRect*
0 Rectangle with rounded corners*
0 $1 Rounding radius*
0 $2 $3 $4 $5 $6 $7 $8 $9 X,Y pos of 4 corners*
0 Add a 4 corners polygon primitive as box body*
4,1,4,$2,$3,$4,$5,$6,$7,$8,$9,$2,$3,0*
0 Add four circle primitives for the rounded corners*
1,1,$1+$1,$2,$3*
1,1,$1+$1,$4,$5*
1,1,$1+$1,$6,$7*
1,1,$1+$1,$8,$9*
0 Add four rect primitives between the rounded corners*
20,1,$1+$1,$2,$3,$4,$5,0*
20,1,$1+$1,$4,$5,$6,$7,0*
20,1,$1+$1,$6,$7,$8,$9,0*
20,1,$1+$1,$8,$9,$2,$3,0*%
%AMFreePoly0*
4,1,21,1.372500,0.787500,0.862500,0.787500,0.862500,0.532500,1.372500,0.532500,1.372500,0.127500,0.862500,0.127500,0.862500,-0.127500,1.372500,-0.127500,1.372500,-0.532500,0.862500,-0.532500,0.862500,-0.787500,1.372500,-0.787500,1.372500,-1.195000,0.612500,-1.195000,0.612500,-1.117500,-0.862500,-1.117500,-0.862500,1.117500,0.612500,1.117500,0.612500,1.195000,1.372500,1.195000,
1.372500,0.787500,1.372500,0.787500,$1*%
G04 Aperture macros list end*
%ADD10RoundRect,0.135000X-0.135000X-0.185000X0.135000X-0.185000X0.135000X0.185000X-0.135000X0.185000X0*%
%ADD11RoundRect,0.200000X-0.200000X-0.275000X0.200000X-0.275000X0.200000X0.275000X-0.200000X0.275000X0*%
%ADD12R,0.990000X0.405000*%
%ADD13FreePoly0,0.000000*%
%ADD14R,1.700000X1.700000*%
%ADD15O,1.700000X1.700000*%
%ADD16RoundRect,0.225000X-0.225000X-0.250000X0.225000X-0.250000X0.225000X0.250000X-0.225000X0.250000X0*%
%ADD17R,1.270000X0.610000*%
%ADD18R,1.020000X0.610000*%
%ADD19R,3.810000X3.910000*%
%ADD20R,1.270000X1.400000*%
%ADD21R,4.720000X4.800000*%
%ADD22RoundRect,0.135000X0.135000X0.185000X-0.135000X0.185000X-0.135000X-0.185000X0.135000X-0.185000X0*%
%ADD23RoundRect,0.250000X-1.425000X0.362500X-1.425000X-0.362500X1.425000X-0.362500X1.425000X0.362500X0*%
%ADD24RoundRect,0.250000X1.100000X-0.325000X1.100000X0.325000X-1.100000X0.325000X-1.100000X-0.325000X0*%
%ADD25RoundRect,0.075000X0.650000X0.075000X-0.650000X0.075000X-0.650000X-0.075000X0.650000X-0.075000X0*%
%ADD26RoundRect,0.250000X0.575000X1.175000X-0.575000X1.175000X-0.575000X-1.175000X0.575000X-1.175000X0*%
%ADD27RoundRect,0.250000X1.425000X-0.362500X1.425000X0.362500X-1.425000X0.362500X-1.425000X-0.362500X0*%
%ADD28RoundRect,0.250000X-0.325000X-1.100000X0.325000X-1.100000X0.325000X1.100000X-0.325000X1.100000X0*%
%ADD29RoundRect,0.135000X0.185000X-0.135000X0.185000X0.135000X-0.185000X0.135000X-0.185000X-0.135000X0*%
%ADD30R,5.400000X2.900000*%
%ADD31RoundRect,0.135000X-0.185000X0.135000X-0.185000X-0.135000X0.185000X-0.135000X0.185000X0.135000X0*%
%ADD32RoundRect,0.200000X0.200000X0.275000X-0.200000X0.275000X-0.200000X-0.275000X0.200000X-0.275000X0*%
%ADD33RoundRect,0.225000X0.225000X0.250000X-0.225000X0.250000X-0.225000X-0.250000X0.225000X-0.250000X0*%
G04 APERTURE END LIST*
D10*
%TO.C,R12*%
X139210000Y-116600000D03*
X140230000Y-116600000D03*
%TD*%
D11*
%TO.C,R2*%
X137100000Y-122900000D03*
X138750000Y-122900000D03*
%TD*%
D12*
%TO.C,Q2*%
X137465000Y-130410000D03*
X137465000Y-131070000D03*
X137465000Y-131730000D03*
X137465000Y-132390000D03*
D13*
X139457500Y-131400000D03*
%TD*%
D14*
%TO.C,J1*%
X103075000Y-134625000D03*
D15*
X103075000Y-132085000D03*
X103075000Y-129545000D03*
X103075000Y-127005000D03*
X103075000Y-124465000D03*
X103075000Y-121925000D03*
%TD*%
D16*
%TO.C,C5*%
X141550000Y-119200000D03*
X143100000Y-119200000D03*
%TD*%
D17*
%TO.C,Q1*%
X131260000Y-131805000D03*
X131260000Y-130535000D03*
X131260000Y-129265000D03*
X131260000Y-127995000D03*
D18*
X125795000Y-129265000D03*
X125795000Y-130535000D03*
X125795000Y-127995000D03*
X125795000Y-131805000D03*
D19*
X127900000Y-129900000D03*
%TD*%
D20*
%TO.C,D1*%
X125845000Y-136440000D03*
X125845000Y-134360000D03*
D21*
X129650000Y-135400000D03*
%TD*%
D22*
%TO.C,R4*%
X140235000Y-117700000D03*
X139215000Y-117700000D03*
%TD*%
D23*
%TO.C,R9*%
X134400000Y-126437500D03*
X134400000Y-132362500D03*
%TD*%
D14*
%TO.C,J2*%
X148075000Y-134625000D03*
D15*
X148075000Y-132085000D03*
X148075000Y-129545000D03*
X148075000Y-127005000D03*
X148075000Y-124465000D03*
X148075000Y-121925000D03*
%TD*%
D24*
%TO.C,C7*%
X140700000Y-137312500D03*
X140700000Y-134362500D03*
%TD*%
D16*
%TO.C,C4*%
X133125000Y-116400000D03*
X134675000Y-116400000D03*
%TD*%
D22*
%TO.C,R11*%
X142260000Y-117700000D03*
X141240000Y-117700000D03*
%TD*%
D10*
%TO.C,R10*%
X128380000Y-117100000D03*
X129400000Y-117100000D03*
%TD*%
D25*
%TO.C,U1*%
X137100000Y-121300000D03*
X137100000Y-120800000D03*
X137100000Y-120300000D03*
X137100000Y-119800000D03*
X137100000Y-119300000D03*
X137100000Y-118800000D03*
X137100000Y-118300000D03*
X137100000Y-117800000D03*
X132800000Y-117800000D03*
X132800000Y-118300000D03*
X132800000Y-118800000D03*
X132800000Y-119300000D03*
X132800000Y-119800000D03*
X132800000Y-120300000D03*
X132800000Y-120800000D03*
X132800000Y-121300000D03*
D26*
X134950000Y-119550000D03*
%TD*%
D22*
%TO.C,R1*%
X129370000Y-119300000D03*
X128350000Y-119300000D03*
%TD*%
D27*
%TO.C,R6*%
X144300000Y-137225000D03*
X144300000Y-131300000D03*
%TD*%
D24*
%TO.C,C2*%
X134100000Y-137312500D03*
X134100000Y-134362500D03*
%TD*%
%TO.C,C6*%
X137400000Y-137312500D03*
X137400000Y-134362500D03*
%TD*%
D28*
%TO.C,C1*%
X126162500Y-123300000D03*
X129112500Y-123300000D03*
%TD*%
D29*
%TO.C,R7*%
X105700000Y-126930000D03*
X105700000Y-125910000D03*
%TD*%
D24*
%TO.C,C8*%
X123900000Y-120125000D03*
X123900000Y-117175000D03*
%TD*%
D10*
%TO.C,R3*%
X128350000Y-118200000D03*
X129370000Y-118200000D03*
%TD*%
D30*
%TO.C,L1*%
X115800000Y-123300000D03*
X115800000Y-133200000D03*
%TD*%
D31*
%TO.C,R8*%
X105700000Y-123440000D03*
X105700000Y-124460000D03*
%TD*%
D32*
%TO.C,R5*%
X138750000Y-124500000D03*
X137100000Y-124500000D03*
%TD*%
D33*
%TO.C,C3*%
X129170000Y-120700000D03*
X127620000Y-120700000D03*
%TD*%
M02*
