%TF.GenerationSoftware,KiCad,Pcbnew,(6.0.10)*%
%TF.CreationDate,2023-02-13T20:49:28-08:00*%
%TF.ProjectId,1050ma-module,31303530-6d61-42d6-9d6f-64756c652e6b,rev?*%
%TF.SameCoordinates,Original*%
%TF.FileFunction,Legend,Bot*%
%TF.FilePolarity,Positive*%
%FSLAX46Y46*%
G04 Gerber Fmt 4.6, Leading zero omitted, Abs format (unit mm)*
G04 Created by KiCad (PCBNEW (6.0.10)) date 2023-02-13 20:49:28*
%MOMM*%
%LPD*%
G01*
G04 APERTURE LIST*
%ADD10C,0.150000*%
%ADD11C,0.120000*%
G04 APERTURE END LIST*
D10*
X145566666Y-137152380D02*
X145566666Y-136152380D01*
X145233333Y-136866666D01*
X144900000Y-136152380D01*
X144900000Y-137152380D01*
X144471428Y-136866666D02*
X143995238Y-136866666D01*
X144566666Y-137152380D02*
X144233333Y-136152380D01*
X143900000Y-137152380D01*
X143661904Y-136152380D02*
X142995238Y-137152380D01*
X142995238Y-136152380D02*
X143661904Y-137152380D01*
X141328571Y-137152380D02*
X141900000Y-137152380D01*
X141614285Y-137152380D02*
X141614285Y-136152380D01*
X141709523Y-136295238D01*
X141804761Y-136390476D01*
X141900000Y-136438095D01*
X140900000Y-137057142D02*
X140852380Y-137104761D01*
X140900000Y-137152380D01*
X140947619Y-137104761D01*
X140900000Y-137057142D01*
X140900000Y-137152380D01*
X139947619Y-136152380D02*
X140423809Y-136152380D01*
X140471428Y-136628571D01*
X140423809Y-136580952D01*
X140328571Y-136533333D01*
X140090476Y-136533333D01*
X139995238Y-136580952D01*
X139947619Y-136628571D01*
X139900000Y-136723809D01*
X139900000Y-136961904D01*
X139947619Y-137057142D01*
X139995238Y-137104761D01*
X140090476Y-137152380D01*
X140328571Y-137152380D01*
X140423809Y-137104761D01*
X140471428Y-137057142D01*
X138757142Y-136866666D02*
X138280952Y-136866666D01*
X138852380Y-137152380D02*
X138519047Y-136152380D01*
X138185714Y-137152380D01*
X137852380Y-137152380D02*
X137852380Y-136152380D01*
X137519047Y-136866666D01*
X137185714Y-136152380D01*
X137185714Y-137152380D01*
X136709523Y-137152380D02*
X136709523Y-136152380D01*
X136328571Y-136152380D01*
X136233333Y-136200000D01*
X136185714Y-136247619D01*
X136138095Y-136342857D01*
X136138095Y-136485714D01*
X136185714Y-136580952D01*
X136233333Y-136628571D01*
X136328571Y-136676190D01*
X136709523Y-136676190D01*
X135757142Y-137104761D02*
X135614285Y-137152380D01*
X135376190Y-137152380D01*
X135280952Y-137104761D01*
X135233333Y-137057142D01*
X135185714Y-136961904D01*
X135185714Y-136866666D01*
X135233333Y-136771428D01*
X135280952Y-136723809D01*
X135376190Y-136676190D01*
X135566666Y-136628571D01*
X135661904Y-136580952D01*
X135709523Y-136533333D01*
X135757142Y-136438095D01*
X135757142Y-136342857D01*
X135709523Y-136247619D01*
X135661904Y-136200000D01*
X135566666Y-136152380D01*
X135328571Y-136152380D01*
X135185714Y-136200000D01*
D11*
%TO.C,TP1*%
X132600000Y-120100000D02*
G75*
G03*
X132600000Y-120100000I-700000J0D01*
G01*
%TD*%
M02*
