"Source:","C:\Users\amkkp\git\floodlight\deployable\base-2ch\base-2ch.kicad_sch"
"Date:","2/12/2023 11:27:48 AM"
"Tool:","Eeschema (6.0.10)"
"Generator:","C:\Program Files\KiCad\6.0\bin\scripting\plugins/bom_csv_grouped_by_value.py"
"Component Count:","70"

"Individual Components:"

"Item","Qty","Reference(s)","Value","LibPart","Footprint","Datasheet","MANUFACTURER","MAXIMUM_PACKAGE_HEIGHT","PARTREV","STANDARD"
"","","C1","C","Device:C","Capacitor_SMD:C_1210_3225Metric","~","","","",""
"","","C2","C","Device:C","Capacitor_SMD:C_1210_3225Metric","~","","","",""
"","","C3","0.1uF","Device:C","Capacitor_SMD:C_0603_1608Metric","~","","","",""
"","","C4","4.7uF","Device:C","Capacitor_SMD:C_0805_2012Metric","~","","","",""
"","","C5","100uF","Device:C_Polarized","Capacitor_Tantalum_SMD:CP_EIA-7343-30_AVX-N","~","","","",""
"","","C6","C","Device:C","Capacitor_SMD:C_1210_3225Metric","~","","","",""
"","","C7","C","Device:C","Capacitor_SMD:C_1210_3225Metric","~","","","",""
"","","C8","0.1uF","Device:C","Capacitor_SMD:C_0603_1608Metric","~","","","",""
"","","C9","4.7uF","Device:C","Capacitor_SMD:C_0805_2012Metric","~","","","",""
"","","C10","100uF","Device:C_Polarized","Capacitor_Tantalum_SMD:CP_EIA-6032-28_Kemet-C","~","","","",""
"","","C11","0.1uF","Device:C","Capacitor_SMD:C_0603_1608Metric","~","","","",""
"","","C12","0.1uF","Device:C","Capacitor_SMD:C_0603_1608Metric","~","","","",""
"","","C13","0.1uF","Device:C","Capacitor_SMD:C_0603_1608Metric","~","","","",""
"","","C14","0.1uF","Device:C","Capacitor_SMD:C_0603_1608Metric","~","","","",""
"","","C15","0.1uF","Device:C","Capacitor_SMD:C_0603_1608Metric","~","","","",""
"","","D1","D_Schottky","Device:D_Schottky","Diode_SMD:D_SMA","~","","","",""
"","","D2","D_Schottky","Device:D_Schottky","Diode_SMD:D_SMA","~","","","",""
"","","D3","LED_BGAR","Device:LED_BGAR","EAST1616:LED_EAST1616RGBA3","~","","","",""
"","","D4","D_Zener","Device:D_Zener","Diode_SMD:D_SOD-123","~","","","",""
"","","H1","MountingHole","Mechanical:MountingHole","MountingHole:MountingHole_3.2mm_M3","~","","","",""
"","","H2","MountingHole","Mechanical:MountingHole","MountingHole:MountingHole_3.2mm_M3","~","","","",""
"","","H3","MountingHole","Mechanical:MountingHole","MountingHole:MountingHole_3.2mm_M3","~","","","",""
"","","H4","MountingHole","Mechanical:MountingHole","MountingHole:MountingHole_3.2mm_M3","~","","","",""
"","","J1","Screw_Terminal_01x02","Connector:Screw_Terminal_01x02","Connector_Wire:SolderWire-1sqmm_1x02_P5.4mm_D1.4mm_OD2.7mm","~","","","",""
"","","J2","Conn_01x06","Connector_Generic:Conn_01x06","Connector_PinSocket_2.54mm:PinSocket_1x06_P2.54mm_Vertical","~","","","",""
"","","J3","Conn_01x06","Connector_Generic:Conn_01x06","Connector_PinSocket_2.54mm:PinSocket_1x06_P2.54mm_Vertical","~","","","",""
"","","J4","XLR3","Connector:XLR3","Connector_PinSocket_2.54mm:PinSocket_1x03_P2.54mm_Vertical"," ~","","","",""
"","","J5","XLR3","Connector:XLR3","Connector_PinSocket_2.54mm:PinSocket_1x03_P2.54mm_Vertical"," ~","","","",""
"","","J6","Conn_01x06","Connector_Generic:Conn_01x06","Connector_PinSocket_2.54mm:PinSocket_1x06_P2.54mm_Vertical","~","","","",""
"","","J7","Conn_01x06","Connector_Generic:Conn_01x06","Connector_PinSocket_2.54mm:PinSocket_1x06_P2.54mm_Vertical","~","","","",""
"","","J8","Conn_01x02","Connector_Generic:Conn_01x02","Connector_Molex:Molex_Micro-Fit_3.0_43650-0215_1x02_P3.00mm_Vertical","~","","","",""
"","","J9","Conn_01x02","Connector_Generic:Conn_01x02","Connector_Molex:Molex_Micro-Fit_3.0_43650-0215_1x02_P3.00mm_Vertical","~","","","",""
"","","J10","Conn_01x02","Connector_Generic:Conn_01x02","Connector_PinSocket_2.54mm:PinSocket_1x02_P2.54mm_Vertical","~","","","",""
"","","J11","Conn_01x02","Connector_Generic:Conn_01x02","Connector_Molex:Molex_KK-254_AE-6410-02A_1x02_P2.54mm_Vertical","~","","","",""
"","","J12","Conn_01x02","Connector_Generic:Conn_01x02","Connector_Molex:Molex_KK-254_AE-6410-02A_1x02_P2.54mm_Vertical","~","","","",""
"","","J13","Conn_01x02","Connector_Generic:Conn_01x02","Connector_JST:JST_XH_B2B-XH-A_1x02_P2.50mm_Vertical","~","","","",""
"","","L1","47uH","Device:L","Inductor_SMD:L_Taiyo-Yuden_NR-80xx","~","","","",""
"","","L2","33uH","Device:L","Inductor_SMD:L_Taiyo-Yuden_NR-80xx","~","","","",""
"","","MOSFET1","SSM6N56FE_LM","2023-02-06_21-39-44:SSM6N56FE_LM","Package_TO_SOT_SMD:SOT-666","SSM6N56FE_LM","","","",""
"","","PS1","PDSE1-S5-S3-S","PDSE1-S5-S3-S:PDSE1-S5-S3-S","PDSE1:CONV_PDSE1-S5-S3-S","","CUI Inc","10.41mm","1.02","Manufacturer Recommendations"
"","","Q1","SUD50P08-25L","Transistor_FET:SUD50P08-25L","Package_TO_SOT_SMD:TO-252-2","https://www.vishay.com/docs/73443/sud50p08.pdf","","","",""
"","","R1","10k","Device:R","Resistor_SMD:R_0603_1608Metric","~","","","",""
"","","R2","R","Device:R","Resistor_SMD:R_0603_1608Metric","~","","","",""
"","","R3","470","Device:R","Resistor_SMD:R_0603_1608Metric","~","","","",""
"","","R4","120","Device:R","Resistor_SMD:R_0603_1608Metric","~","","","",""
"","","R5","R","Device:R","Resistor_SMD:R_0603_1608Metric","~","","","",""
"","","R6","10k","Device:R","Resistor_SMD:R_0603_1608Metric","~","","","",""
"","","R7","470","Device:R","Resistor_SMD:R_0603_1608Metric","~","","","",""
"","","R8","10k","Device:R","Resistor_SMD:R_0603_1608Metric","~","","","",""
"","","R9","470","Device:R","Resistor_SMD:R_0603_1608Metric","~","","","",""
"","","R10","590k","Device:R","Resistor_SMD:R_0603_1608Metric","~","","","",""
"","","R11","10k","Device:R","Resistor_SMD:R_0603_1608Metric","~","","","",""
"","","R12","590k","Device:R","Resistor_SMD:R_0603_1608Metric","~","","","",""
"","","R13","10k","Device:R","Resistor_SMD:R_0603_1608Metric","~","","","",""
"","","R14","R","Device:R","Resistor_SMD:R_0603_1608Metric","~","","","",""
"","","R15","R","Device:R","Resistor_SMD:R_0603_1608Metric","~","","","",""
"","","R16","R","Device:R","Resistor_SMD:R_0603_1608Metric","~","","","",""
"","","R17","R","Device:R","Resistor_SMD:R_0603_1608Metric","~","","","",""
"","","R18","R","Device:R","Resistor_SMD:R_0603_1608Metric","~","","","",""
"","","TP1","TestPoint","Connector:TestPoint","TestPoint:TestPoint_Pad_1.5x1.5mm","~","","","",""
"","","TP2","TestPoint","Connector:TestPoint","TestPoint:TestPoint_Pad_1.5x1.5mm","~","","","",""
"","","TP3","TestPoint","Connector:TestPoint","TestPoint:TestPoint_Pad_1.5x1.5mm","~","","","",""
"","","TP4","TestPoint","Connector:TestPoint","TestPoint:TestPoint_Pad_1.5x1.5mm","~","","","",""
"","","U1","6N137","Isolator:6N137","Package_SO:SSO-8_6.7x9.8mm_P2.54mm_Clearance8mm","https://docs.broadcom.com/docs/AV02-0940EN","","","",""
"","","U2","MAX3483","Interface_UART:MAX3483","Package_SO:TSSOP-8_3x3mm_P0.65mm","https://datasheets.maximintegrated.com/en/ds/MAX3483-MAX3491.pdf","","","",""
"","","U3","6N137","Isolator:6N137","Package_SO:SSO-8_6.7x9.8mm_P2.54mm_Clearance8mm","https://docs.broadcom.com/docs/AV02-0940EN","","","",""
"","","U4","Pico","MCU_RaspberryPi_and_Boards:Pico","MCU_RaspberryPi_and_Boards:RPi_Pico_SMD_TH","","","","",""
"","","U5","6N137","Isolator:6N137","Package_SO:SSO-8_6.7x9.8mm_P2.54mm_Clearance8mm","https://docs.broadcom.com/docs/AV02-0940EN","","","",""
"","","U6","MP9486GN-Z","MPS9486:MP9486GN-Z","footprints:SOIC-8EP_MP9486_MNP","MP9486GN-Z","","","",""
"","","U7","MP9486GN-Z","MPS9486:MP9486GN-Z","footprints:SOIC-8EP_MP9486_MNP","MP9486GN-Z","","","",""



"Collated Components:"

"Item","Qty","Reference(s)","Value","LibPart","Footprint","Datasheet","MANUFACTURER","MAXIMUM_PACKAGE_HEIGHT","PARTREV","STANDARD"
"1","4","C1, C2, C6, C7","C","Device:C","Capacitor_SMD:C_1210_3225Metric","~","","","",""
"2","7","C3, C8, C11, C12, C13, C14, C15","0.1uF","Device:C","Capacitor_SMD:C_0603_1608Metric","~","","","",""
"3","2","C4, C9","4.7uF","Device:C","Capacitor_SMD:C_0805_2012Metric","~","","","",""
"4","1","C5","100uF","Device:C_Polarized","Capacitor_Tantalum_SMD:CP_EIA-7343-30_AVX-N","~","","","",""
"5","1","C10","100uF","Device:C_Polarized","Capacitor_Tantalum_SMD:CP_EIA-6032-28_Kemet-C","~","","","",""
"6","2","D1, D2","D_Schottky","Device:D_Schottky","Diode_SMD:D_SMA","~","","","",""
"7","1","D3","LED_BGAR","Device:LED_BGAR","EAST1616:LED_EAST1616RGBA3","~","","","",""
"8","1","D4","D_Zener","Device:D_Zener","Diode_SMD:D_SOD-123","~","","","",""
"9","4","H1, H2, H3, H4","MountingHole","Mechanical:MountingHole","MountingHole:MountingHole_3.2mm_M3","~","","","",""
"10","1","J1","Screw_Terminal_01x02","Connector:Screw_Terminal_01x02","Connector_Wire:SolderWire-1sqmm_1x02_P5.4mm_D1.4mm_OD2.7mm","~","","","",""
"11","4","J2, J3, J6, J7","Conn_01x06","Connector_Generic:Conn_01x06","Connector_PinSocket_2.54mm:PinSocket_1x06_P2.54mm_Vertical","~","","","",""
"12","2","J4, J5","XLR3","Connector:XLR3","Connector_PinSocket_2.54mm:PinSocket_1x03_P2.54mm_Vertical"," ~","","","",""
"13","2","J8, J9","Conn_01x02","Connector_Generic:Conn_01x02","Connector_Molex:Molex_Micro-Fit_3.0_43650-0215_1x02_P3.00mm_Vertical","~","","","",""
"14","1","J10","Conn_01x02","Connector_Generic:Conn_01x02","Connector_PinSocket_2.54mm:PinSocket_1x02_P2.54mm_Vertical","~","","","",""
"15","2","J11, J12","Conn_01x02","Connector_Generic:Conn_01x02","Connector_Molex:Molex_KK-254_AE-6410-02A_1x02_P2.54mm_Vertical","~","","","",""
"16","1","J13","Conn_01x02","Connector_Generic:Conn_01x02","Connector_JST:JST_XH_B2B-XH-A_1x02_P2.50mm_Vertical","~","","","",""
"17","1","L1","47uH","Device:L","Inductor_SMD:L_Taiyo-Yuden_NR-80xx","~","","","",""
"18","1","L2","33uH","Device:L","Inductor_SMD:L_Taiyo-Yuden_NR-80xx","~","","","",""
"19","1","MOSFET1","SSM6N56FE_LM","2023-02-06_21-39-44:SSM6N56FE_LM","Package_TO_SOT_SMD:SOT-666","SSM6N56FE_LM","","","",""
"20","1","PS1","PDSE1-S5-S3-S","PDSE1-S5-S3-S:PDSE1-S5-S3-S","PDSE1:CONV_PDSE1-S5-S3-S","","CUI Inc","10.41mm","1.02","Manufacturer Recommendations"
"21","1","Q1","SUD50P08-25L","Transistor_FET:SUD50P08-25L","Package_TO_SOT_SMD:TO-252-2","https://www.vishay.com/docs/73443/sud50p08.pdf","","","",""
"22","5","R1, R6, R8, R11, R13","10k","Device:R","Resistor_SMD:R_0603_1608Metric","~","","","",""
"23","7","R2, R5, R14, R15, R16, R17, R18","R","Device:R","Resistor_SMD:R_0603_1608Metric","~","","","",""
"24","3","R3, R7, R9","470","Device:R","Resistor_SMD:R_0603_1608Metric","~","","","",""
"25","1","R4","120","Device:R","Resistor_SMD:R_0603_1608Metric","~","","","",""
"26","2","R10, R12","590k","Device:R","Resistor_SMD:R_0603_1608Metric","~","","","",""
"27","4","TP1, TP2, TP3, TP4","TestPoint","Connector:TestPoint","TestPoint:TestPoint_Pad_1.5x1.5mm","~","","","",""
"28","3","U1, U3, U5","6N137","Isolator:6N137","Package_SO:SSO-8_6.7x9.8mm_P2.54mm_Clearance8mm","https://docs.broadcom.com/docs/AV02-0940EN","","","",""
"29","1","U2","MAX3483","Interface_UART:MAX3483","Package_SO:TSSOP-8_3x3mm_P0.65mm","https://datasheets.maximintegrated.com/en/ds/MAX3483-MAX3491.pdf","","","",""
"30","1","U4","Pico","MCU_RaspberryPi_and_Boards:Pico","MCU_RaspberryPi_and_Boards:RPi_Pico_SMD_TH","","","","",""
"31","2","U6, U7","MP9486GN-Z","MPS9486:MP9486GN-Z","footprints:SOIC-8EP_MP9486_MNP","MP9486GN-Z","","","",""
